#VBF Stau
mc16_13TeV:mc16_13TeV.398358.MGPy8EG_A14N23LO_StauStauVBF_90p0_40p0_2L2.deriv.DAOD_SUSY3.e7742_a875_r9364_p4029
mc16_13TeV:mc16_13TeV.398359.MGPy8EG_A14N23LO_StauStauVBF_90p0_60p0_2L2.deriv.DAOD_SUSY3.e7742_a875_r9364_p4029
mc16_13TeV:mc16_13TeV.398360.MGPy8EG_A14N23LO_StauStauVBF_90p0_80p0_2L2.deriv.DAOD_SUSY3.e7742_a875_r9364_p4029
mc16_13TeV:mc16_13TeV.398361.MGPy8EG_A14N23LO_StauStauVBF_90p0_85p0_2L2.deriv.DAOD_SUSY3.e7742_a875_r9364_p4029
mc16_13TeV:mc16_13TeV.398362.MGPy8EG_A14N23LO_StauStauVBF_100p0_50p0_2L2.deriv.DAOD_SUSY3.e7742_a875_r9364_p4029
mc16_13TeV:mc16_13TeV.398363.MGPy8EG_A14N23LO_StauStauVBF_100p0_60p0_2L2.deriv.DAOD_SUSY3.e7742_a875_r9364_p4029
mc16_13TeV:mc16_13TeV.398364.MGPy8EG_A14N23LO_StauStauVBF_100p0_70p0_2L2.deriv.DAOD_SUSY3.e7742_a875_r9364_p4029
mc16_13TeV:mc16_13TeV.398365.MGPy8EG_A14N23LO_StauStauVBF_100p0_90p0_2L2.deriv.DAOD_SUSY3.e7742_a875_r9364_p4029
mc16_13TeV:mc16_13TeV.398366.MGPy8EG_A14N23LO_StauStauVBF_100p0_95p0_2L2.deriv.DAOD_SUSY3.e7742_a875_r9364_p4029
mc16_13TeV:mc16_13TeV.398367.MGPy8EG_A14N23LO_StauStauVBFQED_90p0_40p0_2L2.deriv.DAOD_SUSY3.e7742_a875_r9364_p4029
mc16_13TeV:mc16_13TeV.398368.MGPy8EG_A14N23LO_StauStauVBFQED_90p0_60p0_2L2.deriv.DAOD_SUSY3.e7742_a875_r9364_p4029
mc16_13TeV:mc16_13TeV.398369.MGPy8EG_A14N23LO_StauStauVBFQED_90p0_80p0_2L2.deriv.DAOD_SUSY3.e7742_a875_r9364_p4029
mc16_13TeV:mc16_13TeV.398370.MGPy8EG_A14N23LO_StauStauVBFQED_90p0_85p0_2L2.deriv.DAOD_SUSY3.e7742_a875_r9364_p4029
mc16_13TeV:mc16_13TeV.398371.MGPy8EG_A14N23LO_StauStauVBFQED_100p0_50p0_2L2.deriv.DAOD_SUSY3.e7742_a875_r9364_p4029
mc16_13TeV:mc16_13TeV.398372.MGPy8EG_A14N23LO_StauStauVBFQED_100p0_60p0_2L2.deriv.DAOD_SUSY3.e7742_a875_r9364_p4029
mc16_13TeV:mc16_13TeV.398373.MGPy8EG_A14N23LO_StauStauVBFQED_100p0_70p0_2L2.deriv.DAOD_SUSY3.e7742_a875_r9364_p4029
mc16_13TeV:mc16_13TeV.398374.MGPy8EG_A14N23LO_StauStauVBFQED_100p0_90p0_2L2.deriv.DAOD_SUSY3.e7742_a875_r9364_p4029
mc16_13TeV:mc16_13TeV.398375.MGPy8EG_A14N23LO_StauStauVBFQED_100p0_95p0_2L2.deriv.DAOD_SUSY3.e7742_a875_r9364_p4029

# Stau
mc16_13TeV:mc16_13TeV.501056.MGPy8EG_StauStauDirect_120p0_1p0_TFilt.deriv.DAOD_SUSY3.e8263_a875_r9364_p4029
mc16_13TeV:mc16_13TeV.501057.MGPy8EG_StauStauDirect_160p0_1p0_TFilt.deriv.DAOD_SUSY3.e8263_a875_r9364_p4029
mc16_13TeV:mc16_13TeV.501058.MGPy8EG_StauStauDirect_200p0_1p0_TFilt.deriv.DAOD_SUSY3.e8263_a875_r9364_p4029
mc16_13TeV:mc16_13TeV.501059.MGPy8EG_StauStauDirect_240p0_1p0_TFilt.deriv.DAOD_SUSY3.e8263_a875_r9364_p4029
mc16_13TeV:mc16_13TeV.501060.MGPy8EG_StauStauDirect_280p0_1p0_TFilt.deriv.DAOD_SUSY3.e8263_a875_r9364_p4029
mc16_13TeV:mc16_13TeV.501061.MGPy8EG_StauStauDirect_120p0_40p0_TFilt.deriv.DAOD_SUSY3.e8263_a875_r9364_p4029
mc16_13TeV:mc16_13TeV.501062.MGPy8EG_StauStauDirect_160p0_40p0_TFilt.deriv.DAOD_SUSY3.e8263_a875_r9364_p4029
mc16_13TeV:mc16_13TeV.501063.MGPy8EG_StauStauDirect_200p0_40p0_TFilt.deriv.DAOD_SUSY3.e8263_a875_r9364_p4029
mc16_13TeV:mc16_13TeV.501064.MGPy8EG_StauStauDirect_240p0_40p0_TFilt.deriv.DAOD_SUSY3.e8263_a875_r9364_p4029
mc16_13TeV:mc16_13TeV.501065.MGPy8EG_StauStauDirect_280p0_40p0_TFilt.deriv.DAOD_SUSY3.e8263_a875_r9364_p4029
mc16_13TeV:mc16_13TeV.501066.MGPy8EG_StauStauDirect_160p0_80p0_TFilt.deriv.DAOD_SUSY3.e8263_a875_r9364_p4029
mc16_13TeV:mc16_13TeV.501067.MGPy8EG_StauStauDirect_240p0_80p0_TFilt.deriv.DAOD_SUSY3.e8263_a875_r9364_p4029
mc16_13TeV:mc16_13TeV.501068.MGPy8EG_StauStauDirect_80p0_1p0_TFilt.deriv.DAOD_SUSY3.e8263_a875_r9364_p4029
mc16_13TeV:mc16_13TeV.501069.MGPy8EG_StauStauDirect_200p0_80p0_TFilt.deriv.DAOD_SUSY3.e8263_a875_r9364_p4029
mc16_13TeV:mc16_13TeV.501070.MGPy8EG_StauStauDirect_200p0_120p0_TFilt.deriv.DAOD_SUSY3.e8263_a875_r9364_p4029
mc16_13TeV:mc16_13TeV.501071.MGPy8EG_StauStauDirect_240p0_120p0_TFilt.deriv.DAOD_SUSY3.e8263_a875_r9364_p4029
mc16_13TeV:mc16_13TeV.501072.MGPy8EG_StauStauDirect_240p0_160p0_TFilt.deriv.DAOD_SUSY3.e8263_a875_r9364_p4029
mc16_13TeV:mc16_13TeV.501073.MGPy8EG_StauStauDirect_280p0_80p0_TFilt.deriv.DAOD_SUSY3.e8263_a875_r9364_p4029
mc16_13TeV:mc16_13TeV.501074.MGPy8EG_StauStauDirect_280p0_120p0_TFilt.deriv.DAOD_SUSY3.e8263_a875_r9364_p4029
mc16_13TeV:mc16_13TeV.501075.MGPy8EG_StauStauDirect_280p0_160p0_TFilt.deriv.DAOD_SUSY3.e8263_a875_r9364_p4029
mc16_13TeV:mc16_13TeV.501076.MGPy8EG_StauStauDirect_320p0_1p0_TFilt.deriv.DAOD_SUSY3.e8263_a875_r9364_p4029
mc16_13TeV:mc16_13TeV.501077.MGPy8EG_StauStauDirect_320p0_40p0_TFilt.deriv.DAOD_SUSY3.e8263_a875_r9364_p4029
mc16_13TeV:mc16_13TeV.501078.MGPy8EG_StauStauDirect_320p0_80p0_TFilt.deriv.DAOD_SUSY3.e8263_a875_r9364_p4029
mc16_13TeV:mc16_13TeV.501079.MGPy8EG_StauStauDirect_320p0_120p0_TFilt.deriv.DAOD_SUSY3.e8263_a875_r9364_p4029
mc16_13TeV:mc16_13TeV.501080.MGPy8EG_StauStauDirect_320p0_160p0_TFilt.deriv.DAOD_SUSY3.e8263_a875_r9364_p4029
mc16_13TeV:mc16_13TeV.501081.MGPy8EG_StauStauDirect_360p0_1p0_TFilt.deriv.DAOD_SUSY3.e8263_a875_r9364_p4029
mc16_13TeV:mc16_13TeV.501082.MGPy8EG_StauStauDirect_360p0_40p0_TFilt.deriv.DAOD_SUSY3.e8263_a875_r9364_p4029
mc16_13TeV:mc16_13TeV.501083.MGPy8EG_StauStauDirect_360p0_80p0_TFilt.deriv.DAOD_SUSY3.e8263_a875_r9364_p4029
mc16_13TeV:mc16_13TeV.501084.MGPy8EG_StauStauDirect_360p0_120p0_TFilt.deriv.DAOD_SUSY3.e8263_a875_r9364_p4029
mc16_13TeV:mc16_13TeV.501085.MGPy8EG_StauStauDirect_400p0_1p0_TFilt.deriv.DAOD_SUSY3.e8263_a875_r9364_p4029
mc16_13TeV:mc16_13TeV.501086.MGPy8EG_StauStauDirect_400p0_80p0_TFilt.deriv.DAOD_SUSY3.e8263_a875_r9364_p4029
mc16_13TeV:mc16_13TeV.501087.MGPy8EG_StauStauDirect_400p0_160p0_TFilt.deriv.DAOD_SUSY3.e8263_a875_r9364_p4029
mc16_13TeV:mc16_13TeV.501088.MGPy8EG_StauStauDirect_440p0_40p0_TFilt.deriv.DAOD_SUSY3.e8263_a875_r9364_p4029
mc16_13TeV:mc16_13TeV.501089.MGPy8EG_StauStauDirect_440p0_1p0_TFilt.deriv.DAOD_SUSY3.e8263_a875_r9364_p4029
mc16_13TeV:mc16_13TeV.501090.MGPy8EG_StauStauDirect_400p0_120p0_TFilt.deriv.DAOD_SUSY3.e8263_a875_r9364_p4029
mc16_13TeV:mc16_13TeV.501091.MGPy8EG_StauStauDirect_400p0_40p0_TFilt.deriv.DAOD_SUSY3.e8263_a875_r9364_p4029
mc16_13TeV:mc16_13TeV.501092.MGPy8EG_StauStauDirect_360p0_200p0_TFilt.deriv.DAOD_SUSY3.e8263_a875_r9364_p4029
mc16_13TeV:mc16_13TeV.501093.MGPy8EG_StauStauDirect_360p0_160p0_TFilt.deriv.DAOD_SUSY3.e8263_a875_r9364_p4029
mc16_13TeV:mc16_13TeV.501094.MGPy8EG_StauStauDirect_380p0_1p0_TFilt.deriv.DAOD_SUSY3.e8263_a875_r9364_p4029
mc16_13TeV:mc16_13TeV.501095.MGPy8EG_StauStauDirect_340p0_40p0_TFilt.deriv.DAOD_SUSY3.e8263_a875_r9364_p4029
mc16_13TeV:mc16_13TeV.501096.MGPy8EG_StauStauDirect_340p0_1p0_TFilt.deriv.DAOD_SUSY3.e8263_a875_r9364_p4029
mc16_13TeV:mc16_13TeV.501097.MGPy8EG_StauStauDirect_320p0_200p0_TFilt.deriv.DAOD_SUSY3.e8263_a875_r9364_p4029
mc16_13TeV:mc16_13TeV.501098.MGPy8EG_StauStauDirect_300p0_40p0_TFilt.deriv.DAOD_SUSY3.e8263_a875_r9364_p4029
mc16_13TeV:mc16_13TeV.501099.MGPy8EG_StauStauDirect_300p0_1p0_TFilt.deriv.DAOD_SUSY3.e8263_a875_r9364_p4029
mc16_13TeV:mc16_13TeV.501100.MGPy8EG_StauStauDirect_260p0_40p0_TFilt.deriv.DAOD_SUSY3.e8263_a875_r9364_p4029
mc16_13TeV:mc16_13TeV.501101.MGPy8EG_StauStauDirect_260p0_1p0_TFilt.deriv.DAOD_SUSY3.e8263_a875_r9364_p4029
mc16_13TeV:mc16_13TeV.501102.MGPy8EG_StauStauDirect_220p0_40p0_TFilt.deriv.DAOD_SUSY3.e8263_a875_r9364_p4029
mc16_13TeV:mc16_13TeV.501103.MGPy8EG_StauStauDirect_220p0_1p0_TFilt.deriv.DAOD_SUSY3.e8263_a875_r9364_p4029
mc16_13TeV:mc16_13TeV.501104.MGPy8EG_StauStauDirect_180p0_40p0_TFilt.deriv.DAOD_SUSY3.e8263_a875_r9364_p4029
mc16_13TeV:mc16_13TeV.501105.MGPy8EG_StauStauDirect_180p0_1p0_TFilt.deriv.DAOD_SUSY3.e8263_a875_r9364_p4029
mc16_13TeV:mc16_13TeV.501106.MGPy8EG_StauStauDirect_140p0_40p0_TFilt.deriv.DAOD_SUSY3.e8263_a875_r9364_p4029
mc16_13TeV:mc16_13TeV.501107.MGPy8EG_StauStauDirect_140p0_1p0_TFilt.deriv.DAOD_SUSY3.e8263_a875_r9364_p4029
mc16_13TeV:mc16_13TeV.501108.MGPy8EG_StauStauDirect_100p0_1p0_TFilt.deriv.DAOD_SUSY3.e8263_a875_r9364_p4029
mc16_13TeV:mc16_13TeV.501109.MGPy8EG_StauStauDirect_100p0_60p0_TFilt.deriv.DAOD_SUSY3.e8263_a875_r9364_p4029
mc16_13TeV:mc16_13TeV.501110.MGPy8EG_StauStauDirect_120p0_80p0_TFilt.deriv.DAOD_SUSY3.e8263_a875_r9364_p4029
mc16_13TeV:mc16_13TeV.501111.MGPy8EG_StauStauDirect_160p0_100p0_TFilt.deriv.DAOD_SUSY3.e8263_a875_r9364_p4029
mc16_13TeV:mc16_13TeV.501112.MGPy8EG_StauStauDirect_280p0_200p0_TFilt.deriv.DAOD_SUSY3.e8263_a875_r9364_p4029
mc16_13TeV:mc16_13TeV.501113.MGPy8EG_StauStauDirect_440p0_80p0_TFilt.deriv.DAOD_SUSY3.e8263_a875_r9364_p4029
mc16_13TeV:mc16_13TeV.501114.MGPy8EG_StauStauDirect_440p0_120p0_TFilt.deriv.DAOD_SUSY3.e8263_a875_r9364_p4029
mc16_13TeV:mc16_13TeV.501115.MGPy8EG_StauStauDirect_80p0_20p0_TFilt.deriv.DAOD_SUSY3.e8263_a875_r9364_p4029
mc16_13TeV:mc16_13TeV.501116.MGPy8EG_StauStauDirect_100p0_20p0_TFilt.deriv.DAOD_SUSY3.e8263_a875_r9364_p4029
mc16_13TeV:mc16_13TeV.501117.MGPy8EG_StauStauDirect_100p0_40p0_TFilt.deriv.DAOD_SUSY3.e8263_a875_r9364_p4029
mc16_13TeV:mc16_13TeV.501118.MGPy8EG_StauStauDirect_120p0_20p0_TFilt.deriv.DAOD_SUSY3.e8263_a875_r9364_p4029
mc16_13TeV:mc16_13TeV.501119.MGPy8EG_StauStauDirect_120p0_60p0_TFilt.deriv.DAOD_SUSY3.e8263_a875_r9364_p4029
mc16_13TeV:mc16_13TeV.501120.MGPy8EG_StauStauDirect_140p0_60p0_TFilt.deriv.DAOD_SUSY3.e8263_a875_r9364_p4029
mc16_13TeV:mc16_13TeV.501121.MGPy8EG_StauStauDirect_140p0_80p0_TFilt.deriv.DAOD_SUSY3.e8263_a875_r9364_p4029
mc16_13TeV:mc16_13TeV.501122.MGPy8EG_StauStauDirect_160p0_60p0_TFilt.deriv.DAOD_SUSY3.e8263_a875_r9364_p4029
mc16_13TeV:mc16_13TeV.501123.MGPy8EG_StauStauDirect_180p0_80p0_TFilt.deriv.DAOD_SUSY3.e8263_a875_r9364_p4029
mc16_13TeV:mc16_13TeV.501124.MGPy8EG_StauStauDirect_180p0_100p0_TFilt.deriv.DAOD_SUSY3.e8263_a875_r9364_p4029
mc16_13TeV:mc16_13TeV.501125.MGPy8EG_StauStauDirect_180p0_120p0_TFilt.deriv.DAOD_SUSY3.e8263_a875_r9364_p4029
mc16_13TeV:mc16_13TeV.501126.MGPy8EG_StauStauDirect_200p0_100p0_TFilt.deriv.DAOD_SUSY3.e8263_a875_r9364_p4029
mc16_13TeV:mc16_13TeV.501127.MGPy8EG_StauStauDirect_220p0_120p0_TFilt.deriv.DAOD_SUSY3.e8263_a875_r9364_p4029
mc16_13TeV:mc16_13TeV.501128.MGPy8EG_StauStauDirect_220p0_140p0_TFilt.deriv.DAOD_SUSY3.e8263_a875_r9364_p4029
mc16_13TeV:mc16_13TeV.501129.MGPy8EG_StauStauDirect_220p0_100p0_TFilt.deriv.DAOD_SUSY3.e8263_a875_r9364_p4029
mc16_13TeV:mc16_13TeV.501130.MGPy8EG_StauStauDirect_220p0_80p0_TFilt.deriv.DAOD_SUSY3.e8263_a875_r9364_p4029
mc16_13TeV:mc16_13TeV.501131.MGPy8EG_StauStauDirect_240p0_140p0_TFilt.deriv.DAOD_SUSY3.e8263_a875_r9364_p4029
mc16_13TeV:mc16_13TeV.501132.MGPy8EG_StauStauDirect_240p0_100p0_TFilt.deriv.DAOD_SUSY3.e8263_a875_r9364_p4029
mc16_13TeV:mc16_13TeV.501133.MGPy8EG_StauStauDirect_260p0_140p0_TFilt.deriv.DAOD_SUSY3.e8263_a875_r9364_p4029
mc16_13TeV:mc16_13TeV.501134.MGPy8EG_StauStauDirect_260p0_160p0_TFilt.deriv.DAOD_SUSY3.e8263_a875_r9364_p4029
mc16_13TeV:mc16_13TeV.501135.MGPy8EG_StauStauDirect_260p0_120p0_TFilt.deriv.DAOD_SUSY3.e8263_a875_r9364_p4029
mc16_13TeV:mc16_13TeV.501136.MGPy8EG_StauStauDirect_260p0_100p0_TFilt.deriv.DAOD_SUSY3.e8263_a875_r9364_p4029
mc16_13TeV:mc16_13TeV.501137.MGPy8EG_StauStauDirect_280p0_100p0_TFilt.deriv.DAOD_SUSY3.e8263_a875_r9364_p4029
mc16_13TeV:mc16_13TeV.502527.MGPy8EG_StauStauDirect_320p0_240p0_TFilt.deriv.DAOD_SUSY3.e8263_a875_r9364_p4029
mc16_13TeV:mc16_13TeV.502542.MGPy8EG_StauStauDirect_520p0_160p0_TFilt.deriv.DAOD_SUSY3.e8263_a875_r9364_p4029
mc16_13TeV:mc16_13TeV.502534.MGPy8EG_StauStauDirect_480p0_80p0_TFilt.deriv.DAOD_SUSY3.e8263_a875_r9364_p4029
mc16_13TeV:mc16_13TeV.502526.MGPy8EG_StauStauDirect_440p0_160p0_TFilt.deriv.DAOD_SUSY3.e8263_a875_r9364_p4029
mc16_13TeV:mc16_13TeV.502546.MGPy8EG_StauStauDirect_80p0_40p0_TFilt.deriv.DAOD_SUSY3.e8263_a875_r9364_p4029
mc16_13TeV:mc16_13TeV.502531.MGPy8EG_StauStauDirect_440p0_200p0_TFilt.deriv.DAOD_SUSY3.e8263_a875_r9364_p4029
mc16_13TeV:mc16_13TeV.502533.MGPy8EG_StauStauDirect_480p0_40p0_TFilt.deriv.DAOD_SUSY3.e8263_a875_r9364_p4029
mc16_13TeV:mc16_13TeV.502529.MGPy8EG_StauStauDirect_400p0_200p0_TFilt.deriv.DAOD_SUSY3.e8263_a875_r9364_p4029
mc16_13TeV:mc16_13TeV.502543.MGPy8EG_StauStauDirect_560p0_40p0_TFilt.deriv.DAOD_SUSY3.e8263_a875_r9364_p4029
mc16_13TeV:mc16_13TeV.502539.MGPy8EG_StauStauDirect_520p0_40p0_TFilt.deriv.DAOD_SUSY3.e8263_a875_r9364_p4029
mc16_13TeV:mc16_13TeV.502545.MGPy8EG_StauStauDirect_560p0_120p0_TFilt.deriv.DAOD_SUSY3.e8263_a875_r9364_p4029
mc16_13TeV:mc16_13TeV.502530.MGPy8EG_StauStauDirect_400p0_240p0_TFilt.deriv.DAOD_SUSY3.e8263_a875_r9364_p4029
mc16_13TeV:mc16_13TeV.502535.MGPy8EG_StauStauDirect_480p0_120p0_TFilt.deriv.DAOD_SUSY3.e8263_a875_r9364_p4029
mc16_13TeV:mc16_13TeV.502536.MGPy8EG_StauStauDirect_480p0_160p0_TFilt.deriv.DAOD_SUSY3.e8263_a875_r9364_p4029
mc16_13TeV:mc16_13TeV.502528.MGPy8EG_StauStauDirect_360p0_240p0_TFilt.deriv.DAOD_SUSY3.e8263_a875_r9364_p4029
mc16_13TeV:mc16_13TeV.502540.MGPy8EG_StauStauDirect_520p0_80p0_TFilt.deriv.DAOD_SUSY3.e8263_a875_r9364_p4029
mc16_13TeV:mc16_13TeV.502524.MGPy8EG_StauStauDirect_480p0_1p0_TFilt.deriv.DAOD_SUSY3.e8263_a875_r9364_p4029
mc16_13TeV:mc16_13TeV.502532.MGPy8EG_StauStauDirect_440p0_240p0_TFilt.deriv.DAOD_SUSY3.e8263_a875_r9364_p4029
mc16_13TeV:mc16_13TeV.502537.MGPy8EG_StauStauDirect_480p0_200p0_TFilt.deriv.DAOD_SUSY3.e8263_a875_r9364_p4029
mc16_13TeV:mc16_13TeV.502525.MGPy8EG_StauStauDirect_560p0_1p0_TFilt.deriv.DAOD_SUSY3.e8263_a875_r9364_p4029
mc16_13TeV:mc16_13TeV.502538.MGPy8EG_StauStauDirect_520p0_1p0_TFilt.deriv.DAOD_SUSY3.e8263_a875_r9364_p4029
mc16_13TeV:mc16_13TeV.502541.MGPy8EG_StauStauDirect_520p0_120p0_TFilt.deriv.DAOD_SUSY3.e8263_a875_r9364_p4029
mc16_13TeV:mc16_13TeV.502544.MGPy8EG_StauStauDirect_560p0_80p0_TFilt.deriv.DAOD_SUSY3.e8263_a875_r9364_p4029

# C1N2 -> Wh
mc16_13TeV:mc16_13TeV.396587.MadGraphPythia8EvtGen_A14N23LO_C1N2_Wh_hall_150p0_0p0_1T.deriv.DAOD_SUSY3.e7351_a875_r9364_p4029                         
mc16_13TeV:mc16_13TeV.396588.MadGraphPythia8EvtGen_A14N23LO_C1N2_Wh_hall_152p5_22p5_1T.deriv.DAOD_SUSY3.e7351_a875_r9364_p4029                        
mc16_13TeV:mc16_13TeV.396589.MadGraphPythia8EvtGen_A14N23LO_C1N2_Wh_hall_162p5_12p5_1T.deriv.DAOD_SUSY3.e7351_a875_r9364_p4029                        
mc16_13TeV:mc16_13TeV.396590.MadGraphPythia8EvtGen_A14N23LO_C1N2_Wh_hall_165p0_35p0_1T.deriv.DAOD_SUSY3.e7351_a875_r9364_p4029                        
mc16_13TeV:mc16_13TeV.396591.MadGraphPythia8EvtGen_A14N23LO_C1N2_Wh_hall_175p0_0p0_1T.deriv.DAOD_SUSY3.e7351_a875_r9364_p4029                         
mc16_13TeV:mc16_13TeV.396592.MadGraphPythia8EvtGen_A14N23LO_C1N2_Wh_hall_175p0_25p0_1T.deriv.DAOD_SUSY3.e7351_a875_r9364_p4029                        
mc16_13TeV:mc16_13TeV.396593.MadGraphPythia8EvtGen_A14N23LO_C1N2_Wh_hall_177p5_47p5_1T.deriv.DAOD_SUSY3.e7351_a875_r9364_p4029                        
mc16_13TeV:mc16_13TeV.396594.MadGraphPythia8EvtGen_A14N23LO_C1N2_Wh_hall_187p5_12p5_1T.deriv.DAOD_SUSY3.e7351_a875_r9364_p4029                        
mc16_13TeV:mc16_13TeV.396595.MadGraphPythia8EvtGen_A14N23LO_C1N2_Wh_hall_187p5_37p5_1T.deriv.DAOD_SUSY3.e7351_a875_r9364_p4029                        
mc16_13TeV:mc16_13TeV.396596.MadGraphPythia8EvtGen_A14N23LO_C1N2_Wh_hall_190p0_60p0_1T.deriv.DAOD_SUSY3.e7351_a875_r9364_p4029                        
mc16_13TeV:mc16_13TeV.396597.MadGraphPythia8EvtGen_A14N23LO_C1N2_Wh_hall_200p0_0p0_1T.deriv.DAOD_SUSY3.e7351_a875_r9364_p4029                         
mc16_13TeV:mc16_13TeV.396598.MadGraphPythia8EvtGen_A14N23LO_C1N2_Wh_hall_200p0_25p0_1T.deriv.DAOD_SUSY3.e7351_a875_r9364_p4029                        
mc16_13TeV:mc16_13TeV.396599.MadGraphPythia8EvtGen_A14N23LO_C1N2_Wh_hall_200p0_50p0_1T.deriv.DAOD_SUSY3.e7351_a875_r9364_p4029                        
mc16_13TeV:mc16_13TeV.396600.MadGraphPythia8EvtGen_A14N23LO_C1N2_Wh_hall_202p5_72p5_1T.deriv.DAOD_SUSY3.e7351_a875_r9364_p4029                        
mc16_13TeV:mc16_13TeV.396601.MadGraphPythia8EvtGen_A14N23LO_C1N2_Wh_hall_212p5_37p5_1T.deriv.DAOD_SUSY3.e7351_a875_r9364_p4029                        
mc16_13TeV:mc16_13TeV.396602.MadGraphPythia8EvtGen_A14N23LO_C1N2_Wh_hall_212p5_62p5_1T.deriv.DAOD_SUSY3.e7351_a875_r9364_p4029                        
mc16_13TeV:mc16_13TeV.396603.MadGraphPythia8EvtGen_A14N23LO_C1N2_Wh_hall_225p0_0p0_1T.deriv.DAOD_SUSY3.e7351_a875_r9364_p4029                         
mc16_13TeV:mc16_13TeV.396604.MadGraphPythia8EvtGen_A14N23LO_C1N2_Wh_hall_225p0_25p0_1T.deriv.DAOD_SUSY3.e7351_a875_r9364_p4029                        
mc16_13TeV:mc16_13TeV.396605.MadGraphPythia8EvtGen_A14N23LO_C1N2_Wh_hall_225p0_50p0_1T.deriv.DAOD_SUSY3.e7351_a875_r9364_p4029                        
mc16_13TeV:mc16_13TeV.396606.MadGraphPythia8EvtGen_A14N23LO_C1N2_Wh_hall_225p0_75p0_1T.deriv.DAOD_SUSY3.e7351_a875_r9364_p4029                        
mc16_13TeV:mc16_13TeV.396607.MadGraphPythia8EvtGen_A14N23LO_C1N2_Wh_hall_237p5_62p5_1T.deriv.DAOD_SUSY3.e7351_a875_r9364_p4029                        
mc16_13TeV:mc16_13TeV.396608.MadGraphPythia8EvtGen_A14N23LO_C1N2_Wh_hall_250p0_0p0_1T.deriv.DAOD_SUSY3.e7351_a875_r9364_p4029                         
mc16_13TeV:mc16_13TeV.396609.MadGraphPythia8EvtGen_A14N23LO_C1N2_Wh_hall_250p0_100p0_1T.deriv.DAOD_SUSY3.e7351_a875_r9364_p4029                       
mc16_13TeV:mc16_13TeV.396610.MadGraphPythia8EvtGen_A14N23LO_C1N2_Wh_hall_250p0_25p0_1T.deriv.DAOD_SUSY3.e7351_a875_r9364_p4029                        
mc16_13TeV:mc16_13TeV.396611.MadGraphPythia8EvtGen_A14N23LO_C1N2_Wh_hall_250p0_50p0_1T.deriv.DAOD_SUSY3.e7351_a875_r9364_p4029                        
mc16_13TeV:mc16_13TeV.396612.MadGraphPythia8EvtGen_A14N23LO_C1N2_Wh_hall_250p0_75p0_1T.deriv.DAOD_SUSY3.e7351_a875_r9364_p4029                        
mc16_13TeV:mc16_13TeV.396613.MadGraphPythia8EvtGen_A14N23LO_C1N2_Wh_hall_275p0_0p0_1T.deriv.DAOD_SUSY3.e7351_a875_r9364_p4029                         
mc16_13TeV:mc16_13TeV.396614.MadGraphPythia8EvtGen_A14N23LO_C1N2_Wh_hall_275p0_25p0_1T.deriv.DAOD_SUSY3.e7351_a875_r9364_p4029                        
mc16_13TeV:mc16_13TeV.396615.MadGraphPythia8EvtGen_A14N23LO_C1N2_Wh_hall_275p0_50p0_1T.deriv.DAOD_SUSY3.e7351_a875_r9364_p4029                        
mc16_13TeV:mc16_13TeV.396616.MadGraphPythia8EvtGen_A14N23LO_C1N2_Wh_hall_275p0_75p0_1T.deriv.DAOD_SUSY3.e7351_a875_r9364_p4029                        
mc16_13TeV:mc16_13TeV.396617.MadGraphPythia8EvtGen_A14N23LO_C1N2_Wh_hall_300p0_0p0_1T.deriv.DAOD_SUSY3.e7351_a875_r9364_p4029                         
mc16_13TeV:mc16_13TeV.396618.MadGraphPythia8EvtGen_A14N23LO_C1N2_Wh_hall_300p0_100p0_1T.deriv.DAOD_SUSY3.e7351_a875_r9364_p4029                       
mc16_13TeV:mc16_13TeV.396619.MadGraphPythia8EvtGen_A14N23LO_C1N2_Wh_hall_300p0_25p0_1T.deriv.DAOD_SUSY3.e7351_a875_r9364_p4029                        
mc16_13TeV:mc16_13TeV.396620.MadGraphPythia8EvtGen_A14N23LO_C1N2_Wh_hall_300p0_50p0_1T.deriv.DAOD_SUSY3.e7351_a875_r9364_p4029                        
mc16_13TeV:mc16_13TeV.396621.MadGraphPythia8EvtGen_A14N23LO_C1N2_Wh_hall_300p0_75p0_1T.deriv.DAOD_SUSY3.e7351_a875_r9364_p4029                        
mc16_13TeV:mc16_13TeV.396622.MadGraphPythia8EvtGen_A14N23LO_C1N2_Wh_hall_325p0_0p0_1T.deriv.DAOD_SUSY3.e7351_a875_r9364_p4029                         
mc16_13TeV:mc16_13TeV.396623.MadGraphPythia8EvtGen_A14N23LO_C1N2_Wh_hall_325p0_50p0_1T.deriv.DAOD_SUSY3.e7351_a875_r9364_p4029                        
mc16_13TeV:mc16_13TeV.396624.MadGraphPythia8EvtGen_A14N23LO_C1N2_Wh_hall_350p0_0p0_1T.deriv.DAOD_SUSY3.e7351_a875_r9364_p4029                         
mc16_13TeV:mc16_13TeV.396625.MadGraphPythia8EvtGen_A14N23LO_C1N2_Wh_hall_350p0_100p0_1T.deriv.DAOD_SUSY3.e7351_a875_r9364_p4029                       
mc16_13TeV:mc16_13TeV.396626.MadGraphPythia8EvtGen_A14N23LO_C1N2_Wh_hall_350p0_25p0_1T.deriv.DAOD_SUSY3.e7351_a875_r9364_p4029                        
mc16_13TeV:mc16_13TeV.396627.MadGraphPythia8EvtGen_A14N23LO_C1N2_Wh_hall_350p0_50p0_1T.deriv.DAOD_SUSY3.e7351_a875_r9364_p4029                        
mc16_13TeV:mc16_13TeV.396628.MadGraphPythia8EvtGen_A14N23LO_C1N2_Wh_hall_350p0_75p0_1T.deriv.DAOD_SUSY3.e7351_a875_r9364_p4029                        
mc16_13TeV:mc16_13TeV.396629.MadGraphPythia8EvtGen_A14N23LO_C1N2_Wh_hall_375p0_0p0_1T.deriv.DAOD_SUSY3.e7351_a875_r9364_p4029                         
mc16_13TeV:mc16_13TeV.396630.MadGraphPythia8EvtGen_A14N23LO_C1N2_Wh_hall_375p0_50p0_1T.deriv.DAOD_SUSY3.e7351_a875_r9364_p4029                        
mc16_13TeV:mc16_13TeV.396631.MadGraphPythia8EvtGen_A14N23LO_C1N2_Wh_hall_400p0_0p0_1T.deriv.DAOD_SUSY3.e7351_a875_r9364_p4029                         
mc16_13TeV:mc16_13TeV.396632.MadGraphPythia8EvtGen_A14N23LO_C1N2_Wh_hall_400p0_25p0_1T.deriv.DAOD_SUSY3.e7351_a875_r9364_p4029                        
mc16_13TeV:mc16_13TeV.396633.MadGraphPythia8EvtGen_A14N23LO_C1N2_Wh_hall_425p0_0p0_1T.deriv.DAOD_SUSY3.e7351_a875_r9364_p4029
mc16_13TeV:mc16_13TeV.398746.MGPy8EG_A14N23LO_C1N2_Wh_hall_500p0_120p0_1T.deriv.DAOD_SUSY3.e7997_a875_r9364_p4029
mc16_13TeV:mc16_13TeV.398747.MGPy8EG_A14N23LO_C1N2_Wh_hall_500p0_75p0_1T.deriv.DAOD_SUSY3.e7997_a875_r9364_p4029
mc16_13TeV:mc16_13TeV.398748.MGPy8EG_A14N23LO_C1N2_Wh_hall_500p0_35p0_1T.deriv.DAOD_SUSY3.e7997_a875_r9364_p4029
mc16_13TeV:mc16_13TeV.398749.MGPy8EG_A14N23LO_C1N2_Wh_hall_500p0_0p0_1T.deriv.DAOD_SUSY3.e7997_a875_r9364_p4029
mc16_13TeV:mc16_13TeV.398750.MGPy8EG_A14N23LO_C1N2_Wh_hall_450p0_120p0_1T.deriv.DAOD_SUSY3.e7997_a875_r9364_p4029
mc16_13TeV:mc16_13TeV.398751.MGPy8EG_A14N23LO_C1N2_Wh_hall_450p0_75p0_1T.deriv.DAOD_SUSY3.e7997_a875_r9364_p4029
mc16_13TeV:mc16_13TeV.398752.MGPy8EG_A14N23LO_C1N2_Wh_hall_450p0_35p0_1T.deriv.DAOD_SUSY3.e7997_a875_r9364_p4029
mc16_13TeV:mc16_13TeV.398753.MGPy8EG_A14N23LO_C1N2_Wh_hall_450p0_0p0_1T.deriv.DAOD_SUSY3.e7997_a875_r9364_p4029
mc16_13TeV:mc16_13TeV.398754.MGPy8EG_A14N23LO_C1N2_Wh_hall_400p0_140p0_1T.deriv.DAOD_SUSY3.e7997_a875_r9364_p4029
mc16_13TeV:mc16_13TeV.398755.MGPy8EG_A14N23LO_C1N2_Wh_hall_400p0_120p0_1T.deriv.DAOD_SUSY3.e7997_a875_r9364_p4029
mc16_13TeV:mc16_13TeV.398756.MGPy8EG_A14N23LO_C1N2_Wh_hall_400p0_100p0_1T.deriv.DAOD_SUSY3.e7997_a875_r9364_p4029
mc16_13TeV:mc16_13TeV.398757.MGPy8EG_A14N23LO_C1N2_Wh_hall_400p0_75p0_1T.deriv.DAOD_SUSY3.e7997_a875_r9364_p4029
mc16_13TeV:mc16_13TeV.398758.MGPy8EG_A14N23LO_C1N2_Wh_hall_400p0_55p0_1T.deriv.DAOD_SUSY3.e7997_a875_r9364_p4029
mc16_13TeV:mc16_13TeV.398759.MGPy8EG_A14N23LO_C1N2_Wh_hall_350p0_160p0_1T.deriv.DAOD_SUSY3.e7997_a875_r9364_p4029
mc16_13TeV:mc16_13TeV.398760.MGPy8EG_A14N23LO_C1N2_Wh_hall_350p0_140p0_1T.deriv.DAOD_SUSY3.e7997_a875_r9364_p4029
mc16_13TeV:mc16_13TeV.398761.MGPy8EG_A14N23LO_C1N2_Wh_hall_350p0_120p0_1T.deriv.DAOD_SUSY3.e7997_a875_r9364_p4029
mc16_13TeV:mc16_13TeV.398762.MGPy8EG_A14N23LO_C1N2_Wh_hall_300p0_140p0_1T.deriv.DAOD_SUSY3.e7997_a875_r9364_p4029
mc16_13TeV:mc16_13TeV.398763.MGPy8EG_A14N23LO_C1N2_Wh_hall_300p0_120p0_1T.deriv.DAOD_SUSY3.e7997_a875_r9364_p4029
mc16_13TeV:mc16_13TeV.398764.MGPy8EG_A14N23LO_C1N2_Wh_hall_246p0_120p0_1T.deriv.DAOD_SUSY3.e7997_a875_r9364_p4029
mc16_13TeV:mc16_13TeV.398765.MGPy8EG_A14N23LO_C1N2_Wh_hall_226p0_100p0_1T.deriv.DAOD_SUSY3.e7997_a875_r9364_p4029
mc16_13TeV:mc16_13TeV.398766.MGPy8EG_A14N23LO_C1N2_Wh_hall_211p0_85p0_1T.deriv.DAOD_SUSY3.e7997_a875_r9364_p4029
mc16_13TeV:mc16_13TeV.398767.MGPy8EG_A14N23LO_C1N2_Wh_hall_181p0_55p0_1T.deriv.DAOD_SUSY3.e7997_a875_r9364_p4029
mc16_13TeV:mc16_13TeV.398768.MGPy8EG_A14N23LO_C1N2_Wh_hall_156p0_30p0_1T.deriv.DAOD_SUSY3.e7997_a875_r9364_p4029
mc16_13TeV:mc16_13TeV.398769.MGPy8EG_A14N23LO_C1N2_Wh_hall_126p0_0p0_1T.deriv.DAOD_SUSY3.e7997_a875_r9364_p4029

# C1C1, C1N2 via stau decay
mc16_13TeV:mc16_13TeV.506280.MGPy8EG_A14N23LO_C1C1_Stau_100p0_0p0_2L1T.deriv.DAOD_SUSY3.e8263_a875_r9364_p4029    
mc16_13TeV:mc16_13TeV.506281.MGPy8EG_A14N23LO_C1C1_Stau_100p0_35p0_2L1T.deriv.DAOD_SUSY3.e8263_a875_r9364_p4029   
mc16_13TeV:mc16_13TeV.506282.MGPy8EG_A14N23LO_C1C1_Stau_100p0_65p0_2L1T.deriv.DAOD_SUSY3.e8263_a875_r9364_p4029   
mc16_13TeV:mc16_13TeV.506283.MGPy8EG_A14N23LO_C1C1_Stau_150p0_50p0_2L1T.deriv.DAOD_SUSY3.e8263_a875_r9364_p4029   
mc16_13TeV:mc16_13TeV.506284.MGPy8EG_A14N23LO_C1C1_Stau_175p0_25p0_2L1T.deriv.DAOD_SUSY3.e8263_a875_r9364_p4029   
mc16_13TeV:mc16_13TeV.506285.MGPy8EG_A14N23LO_C1C1_Stau_175p0_75p0_2L1T.deriv.DAOD_SUSY3.e8263_a875_r9364_p4029   
mc16_13TeV:mc16_13TeV.506286.MGPy8EG_A14N23LO_C1C1_Stau_112p0_12p0_2L1T.deriv.DAOD_SUSY3.e8263_a875_r9364_p4029   
mc16_13TeV:mc16_13TeV.506287.MGPy8EG_A14N23LO_C1C1_Stau_112p0_47p0_2L1T.deriv.DAOD_SUSY3.e8263_a875_r9364_p4029   
mc16_13TeV:mc16_13TeV.506288.MGPy8EG_A14N23LO_C1C1_Stau_117p0_82p0_2L1T.deriv.DAOD_SUSY3.e8263_a875_r9364_p4029   
mc16_13TeV:mc16_13TeV.506289.MGPy8EG_A14N23LO_C1C1_Stau_130p0_30p0_2L1T.deriv.DAOD_SUSY3.e8263_a875_r9364_p4029   
mc16_13TeV:mc16_13TeV.506290.MGPy8EG_A14N23LO_C1C1_Stau_132p0_67p0_2L1T.deriv.DAOD_SUSY3.e8263_a875_r9364_p4029   
mc16_13TeV:mc16_13TeV.506291.MGPy8EG_A14N23LO_C1C1_Stau_142p0_107p0_2L1T.deriv.DAOD_SUSY3.e8263_a875_r9364_p4029  
mc16_13TeV:mc16_13TeV.506292.MGPy8EG_A14N23LO_C1C1_Stau_157p0_92p0_2L1T.deriv.DAOD_SUSY3.e8263_a875_r9364_p4029   
mc16_13TeV:mc16_13TeV.506293.MGPy8EG_A14N23LO_C1C1_Stau_167p0_132p0_2L1T.deriv.DAOD_SUSY3.e8263_a875_r9364_p4029  
mc16_13TeV:mc16_13TeV.506294.MGPy8EG_A14N23LO_C1C1_Stau_182p0_117p0_2L1T.deriv.DAOD_SUSY3.e8263_a875_r9364_p4029  
mc16_13TeV:mc16_13TeV.506295.MGPy8EG_A14N23LO_C1C1_Stau_192p0_157p0_2L1T.deriv.DAOD_SUSY3.e8263_a875_r9364_p4029  
mc16_13TeV:mc16_13TeV.506296.MGPy8EG_A14N23LO_C1C1_Stau_200p0_0p0_2L1T.deriv.DAOD_SUSY3.e8263_a875_r9364_p4029    
mc16_13TeV:mc16_13TeV.506297.MGPy8EG_A14N23LO_C1C1_Stau_200p0_50p0_2L1T.deriv.DAOD_SUSY3.e8263_a875_r9364_p4029   
mc16_13TeV:mc16_13TeV.506298.MGPy8EG_A14N23LO_C1C1_Stau_225p0_075p0_2L1T.deriv.DAOD_SUSY3.e8263_a875_r9364_p4029  
mc16_13TeV:mc16_13TeV.506299.MGPy8EG_A14N23LO_C1C1_Stau_225p0_125p0_2L1T.deriv.DAOD_SUSY3.e8263_a875_r9364_p4029  
mc16_13TeV:mc16_13TeV.506300.MGPy8EG_A14N23LO_C1C1_Stau_250p0_100p0_2L1T.deriv.DAOD_SUSY3.e8263_a875_r9364_p4029  
mc16_13TeV:mc16_13TeV.506301.MGPy8EG_A14N23LO_C1C1_Stau_250p0_150p0_2L1T.deriv.DAOD_SUSY3.e8263_a875_r9364_p4029  
mc16_13TeV:mc16_13TeV.506302.MGPy8EG_A14N23LO_C1C1_Stau_275p0_125p0_2L1T.deriv.DAOD_SUSY3.e8263_a875_r9364_p4029  
mc16_13TeV:mc16_13TeV.506303.MGPy8EG_A14N23LO_C1C1_Stau_275p0_175p0_2L1T.deriv.DAOD_SUSY3.e8263_a875_r9364_p4029  
mc16_13TeV:mc16_13TeV.506304.MGPy8EG_A14N23LO_C1C1_Stau_207p0_142p0_2L1T.deriv.DAOD_SUSY3.e8263_a875_r9364_p4029  
mc16_13TeV:mc16_13TeV.506305.MGPy8EG_A14N23LO_C1C1_Stau_217p0_182p0_2L1T.deriv.DAOD_SUSY3.e8263_a875_r9364_p4029  
mc16_13TeV:mc16_13TeV.506306.MGPy8EG_A14N23LO_C1C1_Stau_232p0_167p0_2L1T.deriv.DAOD_SUSY3.e8263_a875_r9364_p4029  
mc16_13TeV:mc16_13TeV.506307.MGPy8EG_A14N23LO_C1C1_Stau_242p0_207p0_2L1T.deriv.DAOD_SUSY3.e8263_a875_r9364_p4029  
mc16_13TeV:mc16_13TeV.506308.MGPy8EG_A14N23LO_C1C1_Stau_257p0_192p0_2L1T.deriv.DAOD_SUSY3.e8263_a875_r9364_p4029  
mc16_13TeV:mc16_13TeV.506309.MGPy8EG_A14N23LO_C1C1_Stau_267p0_232p0_2L1T.deriv.DAOD_SUSY3.e8263_a875_r9364_p4029  
mc16_13TeV:mc16_13TeV.506310.MGPy8EG_A14N23LO_C1C1_Stau_282p0_217p0_2L1T.deriv.DAOD_SUSY3.e8263_a875_r9364_p4029  
mc16_13TeV:mc16_13TeV.506311.MGPy8EG_A14N23LO_C1C1_Stau_300p0_0p0_2L1T.deriv.DAOD_SUSY3.e8263_a875_r9364_p4029    
mc16_13TeV:mc16_13TeV.506312.MGPy8EG_A14N23LO_C1C1_Stau_300p0_100p0_2L1T.deriv.DAOD_SUSY3.e8263_a875_r9364_p4029  
mc16_13TeV:mc16_13TeV.506313.MGPy8EG_A14N23LO_C1C1_Stau_300p0_150p0_2L1T.deriv.DAOD_SUSY3.e8263_a875_r9364_p4029  
mc16_13TeV:mc16_13TeV.506314.MGPy8EG_A14N23LO_C1C1_Stau_300p0_200p0_2L1T.deriv.DAOD_SUSY3.e8263_a875_r9364_p4029  
mc16_13TeV:mc16_13TeV.506315.MGPy8EG_A14N23LO_C1C1_Stau_350p0_150p0_2L1T.deriv.DAOD_SUSY3.e8263_a875_r9364_p4029  
mc16_13TeV:mc16_13TeV.506316.MGPy8EG_A14N23LO_C1C1_Stau_350p0_200p0_2L1T.deriv.DAOD_SUSY3.e8263_a875_r9364_p4029  
mc16_13TeV:mc16_13TeV.506317.MGPy8EG_A14N23LO_C1C1_Stau_375p0_175p0_2L1T.deriv.DAOD_SUSY3.e8263_a875_r9364_p4029  
mc16_13TeV:mc16_13TeV.506318.MGPy8EG_A14N23LO_C1C1_Stau_200p0_100p0_2L1T.deriv.DAOD_SUSY3.e8263_a875_r9364_p4029  
mc16_13TeV:mc16_13TeV.506319.MGPy8EG_A14N23LO_C1C1_Stau_292p0_257p0_2L1T.deriv.DAOD_SUSY3.e8263_a875_r9364_p4029  
mc16_13TeV:mc16_13TeV.506320.MGPy8EG_A14N23LO_C1C1_Stau_325p0_125p0_2L1T.deriv.DAOD_SUSY3.e8263_a875_r9364_p4029  
mc16_13TeV:mc16_13TeV.506321.MGPy8EG_A14N23LO_C1C1_Stau_325p0_175p0_2L1T.deriv.DAOD_SUSY3.e8263_a875_r9364_p4029  
mc16_13TeV:mc16_13TeV.506322.MGPy8EG_A14N23LO_C1C1_Stau_325p0_225p0_2L1T.deriv.DAOD_SUSY3.e8263_a875_r9364_p4029  
mc16_13TeV:mc16_13TeV.506323.MGPy8EG_A14N23LO_C1C1_Stau_307p0_242p0_2L1T.deriv.DAOD_SUSY3.e8263_a875_r9364_p4029  
mc16_13TeV:mc16_13TeV.506324.MGPy8EG_A14N23LO_C1C1_Stau_345p0_280p0_2L1T.deriv.DAOD_SUSY3.e8263_a875_r9364_p4029  
mc16_13TeV:mc16_13TeV.506325.MGPy8EG_A14N23LO_C1C1_Stau_362p0_262p0_2L1T.deriv.DAOD_SUSY3.e8263_a875_r9364_p4029  
mc16_13TeV:mc16_13TeV.506326.MGPy8EG_A14N23LO_C1C1_Stau_387p0_237p0_2L1T.deriv.DAOD_SUSY3.e8263_a875_r9364_p4029  
mc16_13TeV:mc16_13TeV.506327.MGPy8EG_A14N23LO_C1C1_Stau_400p0_0p0_2L1T.deriv.DAOD_SUSY3.e8263_a875_r9364_p4029    
mc16_13TeV:mc16_13TeV.506328.MGPy8EG_A14N23LO_C1C1_Stau_412p0_212p0_2L1T.deriv.DAOD_SUSY3.e8263_a875_r9364_p4029  
mc16_13TeV:mc16_13TeV.506329.MGPy8EG_A14N23LO_C1C1_Stau_400p0_100p0_2L1T.deriv.DAOD_SUSY3.e8263_a875_r9364_p4029  
mc16_13TeV:mc16_13TeV.506331.MGPy8EG_A14N23LO_C1C1_Stau_400p0_300p0_2L1T.deriv.DAOD_SUSY3.e8263_a875_r9364_p4029  
mc16_13TeV:mc16_13TeV.506332.MGPy8EG_A14N23LO_C1C1_Stau_425p0_275p0_2L1T.deriv.DAOD_SUSY3.e8263_a875_r9364_p4029  
mc16_13TeV:mc16_13TeV.506333.MGPy8EG_A14N23LO_C1C1_Stau_450p0_250p0_2L1T.deriv.DAOD_SUSY3.e8263_a875_r9364_p4029  
mc16_13TeV:mc16_13TeV.506334.MGPy8EG_A14N23LO_C1C1_Stau_450p0_300p0_2L1T.deriv.DAOD_SUSY3.e8263_a875_r9364_p4029  
mc16_13TeV:mc16_13TeV.506335.MGPy8EG_A14N23LO_C1C1_Stau_450p0_350p0_2L1T.deriv.DAOD_SUSY3.e8263_a875_r9364_p4029  
mc16_13TeV:mc16_13TeV.506336.MGPy8EG_A14N23LO_C1C1_Stau_500p0_000p0_2L1T.deriv.DAOD_SUSY3.e8263_a875_r9364_p4029  
mc16_13TeV:mc16_13TeV.506337.MGPy8EG_A14N23LO_C1C1_Stau_500p0_100p0_2L1T.deriv.DAOD_SUSY3.e8263_a875_r9364_p4029  
mc16_13TeV:mc16_13TeV.506338.MGPy8EG_A14N23LO_C1C1_Stau_500p0_200p0_2L1T.deriv.DAOD_SUSY3.e8263_a875_r9364_p4029  
mc16_13TeV:mc16_13TeV.506340.MGPy8EG_A14N23LO_C1C1_Stau_500p0_300p0_2L1T.deriv.DAOD_SUSY3.e8263_a875_r9364_p4029  
mc16_13TeV:mc16_13TeV.506341.MGPy8EG_A14N23LO_C1C1_Stau_500p0_350p0_2L1T.deriv.DAOD_SUSY3.e8263_a875_r9364_p4029  
mc16_13TeV:mc16_13TeV.506342.MGPy8EG_A14N23LO_C1C1_Stau_500p0_400p0_2L1T.deriv.DAOD_SUSY3.e8263_a875_r9364_p4029  
mc16_13TeV:mc16_13TeV.506343.MGPy8EG_A14N23LO_C1C1_Stau_550p0_350p0_2L1T.deriv.DAOD_SUSY3.e8263_a875_r9364_p4029  
mc16_13TeV:mc16_13TeV.506344.MGPy8EG_A14N23LO_C1C1_Stau_550p0_400p0_2L1T.deriv.DAOD_SUSY3.e8263_a875_r9364_p4029  
mc16_13TeV:mc16_13TeV.506345.MGPy8EG_A14N23LO_C1C1_Stau_550p0_450p0_2L1T.deriv.DAOD_SUSY3.e8263_a875_r9364_p4029  
mc16_13TeV:mc16_13TeV.506346.MGPy8EG_A14N23LO_C1C1_Stau_600p0_0p0_2L1T.deriv.DAOD_SUSY3.e8263_a875_r9364_p4029    
mc16_13TeV:mc16_13TeV.506347.MGPy8EG_A14N23LO_C1C1_Stau_600p0_100p0_2L1T.deriv.DAOD_SUSY3.e8263_a875_r9364_p4029  
mc16_13TeV:mc16_13TeV.506348.MGPy8EG_A14N23LO_C1C1_Stau_600p0_200p0_2L1T.deriv.DAOD_SUSY3.e8263_a875_r9364_p4029  
mc16_13TeV:mc16_13TeV.506349.MGPy8EG_A14N23LO_C1C1_Stau_600p0_300p0_2L1T.deriv.DAOD_SUSY3.e8263_a875_r9364_p4029  
mc16_13TeV:mc16_13TeV.506350.MGPy8EG_A14N23LO_C1C1_Stau_600p0_400p0_2L1T.deriv.DAOD_SUSY3.e8263_a875_r9364_p4029  
mc16_13TeV:mc16_13TeV.506351.MGPy8EG_A14N23LO_C1C1_Stau_600p0_450p0_2L1T.deriv.DAOD_SUSY3.e8263_a875_r9364_p4029  
mc16_13TeV:mc16_13TeV.506352.MGPy8EG_A14N23LO_C1C1_Stau_600p0_500p0_2L1T.deriv.DAOD_SUSY3.e8263_a875_r9364_p4029  
mc16_13TeV:mc16_13TeV.506353.MGPy8EG_A14N23LO_C1C1_Stau_650p0_350p0_2L1T.deriv.DAOD_SUSY3.e8263_a875_r9364_p4029  
mc16_13TeV:mc16_13TeV.506354.MGPy8EG_A14N23LO_C1C1_Stau_650p0_450p0_2L1T.deriv.DAOD_SUSY3.e8263_a875_r9364_p4029  
mc16_13TeV:mc16_13TeV.506355.MGPy8EG_A14N23LO_C1C1_Stau_650p0_500p0_2L1T.deriv.DAOD_SUSY3.e8263_a875_r9364_p4029  
mc16_13TeV:mc16_13TeV.506356.MGPy8EG_A14N23LO_C1C1_Stau_650p0_550p0_2L1T.deriv.DAOD_SUSY3.e8263_a875_r9364_p4029  
mc16_13TeV:mc16_13TeV.506357.MGPy8EG_A14N23LO_C1C1_Stau_700p0_000p0_2L1T.deriv.DAOD_SUSY3.e8263_a875_r9364_p4029  
mc16_13TeV:mc16_13TeV.506358.MGPy8EG_A14N23LO_C1C1_Stau_700p0_100p0_2L1T.deriv.DAOD_SUSY3.e8263_a875_r9364_p4029  
mc16_13TeV:mc16_13TeV.506359.MGPy8EG_A14N23LO_C1C1_Stau_700p0_200p0_2L1T.deriv.DAOD_SUSY3.e8263_a875_r9364_p4029  
mc16_13TeV:mc16_13TeV.506360.MGPy8EG_A14N23LO_C1C1_Stau_700p0_300p0_2L1T.deriv.DAOD_SUSY3.e8263_a875_r9364_p4029  
mc16_13TeV:mc16_13TeV.506361.MGPy8EG_A14N23LO_C1C1_Stau_700p0_400p0_2L1T.deriv.DAOD_SUSY3.e8263_a875_r9364_p4029  
mc16_13TeV:mc16_13TeV.506362.MGPy8EG_A14N23LO_C1C1_Stau_700p0_500p0_2L1T.deriv.DAOD_SUSY3.e8263_a875_r9364_p4029  
mc16_13TeV:mc16_13TeV.506363.MGPy8EG_A14N23LO_C1C1_Stau_700p0_550p0_2L1T.deriv.DAOD_SUSY3.e8263_a875_r9364_p4029  
mc16_13TeV:mc16_13TeV.506364.MGPy8EG_A14N23LO_C1C1_Stau_700p0_600p0_2L1T.deriv.DAOD_SUSY3.e8263_a875_r9364_p4029  
mc16_13TeV:mc16_13TeV.506365.MGPy8EG_A14N23LO_C1C1_Stau_725p0_575p0_2L1T.deriv.DAOD_SUSY3.e8263_a875_r9364_p4029  
mc16_13TeV:mc16_13TeV.506366.MGPy8EG_A14N23LO_C1C1_Stau_750p0_450p0_2L1T.deriv.DAOD_SUSY3.e8263_a875_r9364_p4029  
mc16_13TeV:mc16_13TeV.506367.MGPy8EG_A14N23LO_C1C1_Stau_750p0_550p0_2L1T.deriv.DAOD_SUSY3.e8263_a875_r9364_p4029  
mc16_13TeV:mc16_13TeV.506368.MGPy8EG_A14N23LO_C1C1_Stau_800p0_0p0_2L1T.deriv.DAOD_SUSY3.e8263_a875_r9364_p4029    
mc16_13TeV:mc16_13TeV.506369.MGPy8EG_A14N23LO_C1C1_Stau_800p0_100p0_2L1T.deriv.DAOD_SUSY3.e8263_a875_r9364_p4029  
mc16_13TeV:mc16_13TeV.506370.MGPy8EG_A14N23LO_C1C1_Stau_800p0_200p0_2L1T.deriv.DAOD_SUSY3.e8263_a875_r9364_p4029  
mc16_13TeV:mc16_13TeV.506371.MGPy8EG_A14N23LO_C1C1_Stau_800p0_300p0_2L1T.deriv.DAOD_SUSY3.e8263_a875_r9364_p4029  
mc16_13TeV:mc16_13TeV.506372.MGPy8EG_A14N23LO_C1C1_Stau_800p0_400p0_2L1T.deriv.DAOD_SUSY3.e8263_a875_r9364_p4029  
mc16_13TeV:mc16_13TeV.506373.MGPy8EG_A14N23LO_C1C1_Stau_800p0_500p0_2L1T.deriv.DAOD_SUSY3.e8263_a875_r9364_p4029  
mc16_13TeV:mc16_13TeV.506374.MGPy8EG_A14N23LO_C1C1_Stau_800p0_550p0_2L1T.deriv.DAOD_SUSY3.e8263_a875_r9364_p4029  
mc16_13TeV:mc16_13TeV.506375.MGPy8EG_A14N23LO_C1C1_Stau_800p0_600p0_2L1T.deriv.DAOD_SUSY3.e8263_a875_r9364_p4029  
mc16_13TeV:mc16_13TeV.506376.MGPy8EG_A14N23LO_C1C1_Stau_800p0_700p0_2L1T.deriv.DAOD_SUSY3.e8263_a875_r9364_p4029  
mc16_13TeV:mc16_13TeV.506377.MGPy8EG_A14N23LO_C1C1_Stau_900p0_0p0_2L1T.deriv.DAOD_SUSY3.e8263_a875_r9364_p4029    
mc16_13TeV:mc16_13TeV.506378.MGPy8EG_A14N23LO_C1C1_Stau_900p0_100p0_2L1T.deriv.DAOD_SUSY3.e8263_a875_r9364_p4029  
mc16_13TeV:mc16_13TeV.506379.MGPy8EG_A14N23LO_C1C1_Stau_900p0_200p0_2L1T.deriv.DAOD_SUSY3.e8263_a875_r9364_p4029  
mc16_13TeV:mc16_13TeV.506380.MGPy8EG_A14N23LO_C1C1_Stau_900p0_300p0_2L1T.deriv.DAOD_SUSY3.e8263_a875_r9364_p4029  
mc16_13TeV:mc16_13TeV.506381.MGPy8EG_A14N23LO_C1C1_Stau_900p0_400p0_2L1T.deriv.DAOD_SUSY3.e8263_a875_r9364_p4029  
mc16_13TeV:mc16_13TeV.506382.MGPy8EG_A14N23LO_C1C1_Stau_900p0_500p0_2L1T.deriv.DAOD_SUSY3.e8263_a875_r9364_p4029  
mc16_13TeV:mc16_13TeV.506383.MGPy8EG_A14N23LO_C1C1_Stau_900p0_600p0_2L1T.deriv.DAOD_SUSY3.e8263_a875_r9364_p4029  
mc16_13TeV:mc16_13TeV.506384.MGPy8EG_A14N23LO_C1C1_Stau_900p0_700p0_2L1T.deriv.DAOD_SUSY3.e8263_a875_r9364_p4029  
mc16_13TeV:mc16_13TeV.506385.MGPy8EG_A14N23LO_C1C1_Stau_900p0_800p0_2L1T.deriv.DAOD_SUSY3.e8263_a875_r9364_p4029  
mc16_13TeV:mc16_13TeV.506386.MGPy8EG_A14N23LO_C1C1_Stau_1000p0_0p0_2L1T.deriv.DAOD_SUSY3.e8263_a875_r9364_p4029   
mc16_13TeV:mc16_13TeV.506387.MGPy8EG_A14N23LO_C1C1_Stau_1000p0_100p0_2L1T.deriv.DAOD_SUSY3.e8263_a875_r9364_p4029 
mc16_13TeV:mc16_13TeV.506388.MGPy8EG_A14N23LO_C1C1_Stau_1000p0_200p0_2L1T.deriv.DAOD_SUSY3.e8263_a875_r9364_p4029 
mc16_13TeV:mc16_13TeV.506389.MGPy8EG_A14N23LO_C1C1_Stau_1000p0_300p0_2L1T.deriv.DAOD_SUSY3.e8263_a875_r9364_p4029 
mc16_13TeV:mc16_13TeV.506390.MGPy8EG_A14N23LO_C1C1_Stau_1000p0_400p0_2L1T.deriv.DAOD_SUSY3.e8263_a875_r9364_p4029 
mc16_13TeV:mc16_13TeV.506391.MGPy8EG_A14N23LO_C1C1_Stau_1000p0_500p0_2L1T.deriv.DAOD_SUSY3.e8263_a875_r9364_p4029 
mc16_13TeV:mc16_13TeV.506392.MGPy8EG_A14N23LO_C1C1_Stau_1000p0_600p0_2L1T.deriv.DAOD_SUSY3.e8263_a875_r9364_p4029 
mc16_13TeV:mc16_13TeV.506393.MGPy8EG_A14N23LO_C1C1_Stau_1000p0_700p0_2L1T.deriv.DAOD_SUSY3.e8263_a875_r9364_p4029 
mc16_13TeV:mc16_13TeV.506394.MGPy8EG_A14N23LO_C1C1_Stau_1000p0_800p0_2L1T.deriv.DAOD_SUSY3.e8263_a875_r9364_p4029 
mc16_13TeV:mc16_13TeV.506395.MGPy8EG_A14N23LO_C1C1_Stau_1100p0_0p0_2L1T.deriv.DAOD_SUSY3.e8263_a875_r9364_p4029   
mc16_13TeV:mc16_13TeV.506396.MGPy8EG_A14N23LO_C1C1_Stau_1100p0_100p0_2L1T.deriv.DAOD_SUSY3.e8263_a875_r9364_p4029 
mc16_13TeV:mc16_13TeV.506397.MGPy8EG_A14N23LO_C1C1_Stau_1100p0_200p0_2L1T.deriv.DAOD_SUSY3.e8263_a875_r9364_p4029 
mc16_13TeV:mc16_13TeV.506398.MGPy8EG_A14N23LO_C1C1_Stau_1100p0_300p0_2L1T.deriv.DAOD_SUSY3.e8263_a875_r9364_p4029 
mc16_13TeV:mc16_13TeV.506399.MGPy8EG_A14N23LO_C1C1_Stau_1100p0_400p0_2L1T.deriv.DAOD_SUSY3.e8263_a875_r9364_p4029 
mc16_13TeV:mc16_13TeV.506400.MGPy8EG_A14N23LO_C1C1_Stau_1100p0_500p0_2L1T.deriv.DAOD_SUSY3.e8263_a875_r9364_p4029 
mc16_13TeV:mc16_13TeV.506401.MGPy8EG_A14N23LO_C1C1_Stau_1100p0_600p0_2L1T.deriv.DAOD_SUSY3.e8263_a875_r9364_p4029 
mc16_13TeV:mc16_13TeV.506402.MGPy8EG_A14N23LO_C1C1_Stau_1100p0_700p0_2L1T.deriv.DAOD_SUSY3.e8263_a875_r9364_p4029 
mc16_13TeV:mc16_13TeV.506403.MGPy8EG_A14N23LO_C1C1_Stau_1100p0_800p0_2L1T.deriv.DAOD_SUSY3.e8263_a875_r9364_p4029 
mc16_13TeV:mc16_13TeV.506404.MGPy8EG_A14N23LO_C1C1_Stau_1200p0_0p0_2L1T.deriv.DAOD_SUSY3.e8263_a875_r9364_p4029   
mc16_13TeV:mc16_13TeV.506405.MGPy8EG_A14N23LO_C1C1_Stau_1200p0_100p0_2L1T.deriv.DAOD_SUSY3.e8263_a875_r9364_p4029 
mc16_13TeV:mc16_13TeV.506406.MGPy8EG_A14N23LO_C1C1_Stau_1200p0_200p0_2L1T.deriv.DAOD_SUSY3.e8263_a875_r9364_p4029 
mc16_13TeV:mc16_13TeV.506407.MGPy8EG_A14N23LO_C1C1_Stau_1200p0_300p0_2L1T.deriv.DAOD_SUSY3.e8263_a875_r9364_p4029 
mc16_13TeV:mc16_13TeV.506408.MGPy8EG_A14N23LO_C1C1_Stau_1200p0_400p0_2L1T.deriv.DAOD_SUSY3.e8263_a875_r9364_p4029 
mc16_13TeV:mc16_13TeV.506409.MGPy8EG_A14N23LO_C1C1_Stau_1200p0_500p0_2L1T.deriv.DAOD_SUSY3.e8263_a875_r9364_p4029 
mc16_13TeV:mc16_13TeV.506410.MGPy8EG_A14N23LO_C1C1_Stau_1200p0_600p0_2L1T.deriv.DAOD_SUSY3.e8263_a875_r9364_p4029 
mc16_13TeV:mc16_13TeV.506411.MGPy8EG_A14N23LO_C1C1_Stau_1200p0_700p0_2L1T.deriv.DAOD_SUSY3.e8263_a875_r9364_p4029 
mc16_13TeV:mc16_13TeV.506412.MGPy8EG_A14N23LO_C1C1_Stau_1200p0_800p0_2L1T.deriv.DAOD_SUSY3.e8263_a875_r9364_p4029 
mc16_13TeV:mc16_13TeV.506413.MGPy8EG_A14N23LO_C1C1_Stau_1300p0_0p0_2L1T.deriv.DAOD_SUSY3.e8263_a875_r9364_p4029   
mc16_13TeV:mc16_13TeV.506414.MGPy8EG_A14N23LO_C1C1_Stau_1300p0_100p0_2L1T.deriv.DAOD_SUSY3.e8263_a875_r9364_p4029 
mc16_13TeV:mc16_13TeV.506415.MGPy8EG_A14N23LO_C1C1_Stau_1300p0_200p0_2L1T.deriv.DAOD_SUSY3.e8263_a875_r9364_p4029 
mc16_13TeV:mc16_13TeV.506416.MGPy8EG_A14N23LO_C1C1_Stau_1300p0_300p0_2L1T.deriv.DAOD_SUSY3.e8263_a875_r9364_p4029 
mc16_13TeV:mc16_13TeV.506417.MGPy8EG_A14N23LO_C1C1_Stau_1300p0_400p0_2L1T.deriv.DAOD_SUSY3.e8263_a875_r9364_p4029 
mc16_13TeV:mc16_13TeV.506418.MGPy8EG_A14N23LO_C1C1_Stau_1300p0_500p0_2L1T.deriv.DAOD_SUSY3.e8263_a875_r9364_p4029 
mc16_13TeV:mc16_13TeV.506419.MGPy8EG_A14N23LO_C1C1_Stau_1300p0_600p0_2L1T.deriv.DAOD_SUSY3.e8263_a875_r9364_p4029 
mc16_13TeV:mc16_13TeV.506420.MGPy8EG_A14N23LO_C1C1_Stau_1300p0_700p0_2L1T.deriv.DAOD_SUSY3.e8263_a875_r9364_p4029 
mc16_13TeV:mc16_13TeV.506421.MGPy8EG_A14N23LO_C1C1_Stau_1300p0_800p0_2L1T.deriv.DAOD_SUSY3.e8263_a875_r9364_p4029 
mc16_13TeV:mc16_13TeV.506422.MGPy8EG_A14N23LO_C1C1_Stau_1400p0_0p0_2L1T.deriv.DAOD_SUSY3.e8263_a875_r9364_p4029   
mc16_13TeV:mc16_13TeV.506423.MGPy8EG_A14N23LO_C1C1_Stau_1400p0_100p0_2L1T.deriv.DAOD_SUSY3.e8263_a875_r9364_p4029 
mc16_13TeV:mc16_13TeV.506424.MGPy8EG_A14N23LO_C1C1_Stau_1400p0_200p0_2L1T.deriv.DAOD_SUSY3.e8263_a875_r9364_p4029 
mc16_13TeV:mc16_13TeV.506425.MGPy8EG_A14N23LO_C1C1_Stau_1400p0_300p0_2L1T.deriv.DAOD_SUSY3.e8263_a875_r9364_p4029 
mc16_13TeV:mc16_13TeV.506426.MGPy8EG_A14N23LO_C1C1_Stau_1400p0_400p0_2L1T.deriv.DAOD_SUSY3.e8263_a875_r9364_p4029 
mc16_13TeV:mc16_13TeV.506427.MGPy8EG_A14N23LO_C1C1_Stau_1400p0_500p0_2L1T.deriv.DAOD_SUSY3.e8263_a875_r9364_p4029 
mc16_13TeV:mc16_13TeV.506428.MGPy8EG_A14N23LO_C1C1_Stau_1400p0_600p0_2L1T.deriv.DAOD_SUSY3.e8263_a875_r9364_p4029 
mc16_13TeV:mc16_13TeV.506429.MGPy8EG_A14N23LO_C1C1_Stau_1400p0_700p0_2L1T.deriv.DAOD_SUSY3.e8263_a875_r9364_p4029 
mc16_13TeV:mc16_13TeV.506430.MGPy8EG_A14N23LO_C1C1_Stau_1400p0_800p0_2L1T.deriv.DAOD_SUSY3.e8263_a875_r9364_p4029 
mc16_13TeV:mc16_13TeV.506431.MGPy8EG_A14N23LO_C1C1_Stau_1500p0_0p0_2L1T.deriv.DAOD_SUSY3.e8263_a875_r9364_p4029   
mc16_13TeV:mc16_13TeV.506432.MGPy8EG_A14N23LO_C1C1_Stau_1500p0_100p0_2L1T.deriv.DAOD_SUSY3.e8263_a875_r9364_p4029 
mc16_13TeV:mc16_13TeV.506433.MGPy8EG_A14N23LO_C1C1_Stau_1500p0_200p0_2L1T.deriv.DAOD_SUSY3.e8263_a875_r9364_p4029 
mc16_13TeV:mc16_13TeV.506434.MGPy8EG_A14N23LO_C1C1_Stau_1500p0_300p0_2L1T.deriv.DAOD_SUSY3.e8263_a875_r9364_p4029 
mc16_13TeV:mc16_13TeV.506435.MGPy8EG_A14N23LO_C1C1_Stau_1500p0_400p0_2L1T.deriv.DAOD_SUSY3.e8263_a875_r9364_p4029 
mc16_13TeV:mc16_13TeV.506436.MGPy8EG_A14N23LO_C1C1_Stau_1500p0_500p0_2L1T.deriv.DAOD_SUSY3.e8263_a875_r9364_p4029 
mc16_13TeV:mc16_13TeV.506437.MGPy8EG_A14N23LO_C1C1_Stau_1500p0_600p0_2L1T.deriv.DAOD_SUSY3.e8263_a875_r9364_p4029 
mc16_13TeV:mc16_13TeV.506438.MGPy8EG_A14N23LO_C1C1_Stau_1500p0_700p0_2L1T.deriv.DAOD_SUSY3.e8263_a875_r9364_p4029 
mc16_13TeV:mc16_13TeV.506439.MGPy8EG_A14N23LO_C1C1_Stau_1500p0_800p0_2L1T.deriv.DAOD_SUSY3.e8263_a875_r9364_p4029 
mc16_13TeV:mc16_13TeV.506440.MGPy8EG_A14N23LO_C1N2_Stau_100p0_0p0_2L1T.deriv.DAOD_SUSY3.e8263_a875_r9364_p4029    
mc16_13TeV:mc16_13TeV.506441.MGPy8EG_A14N23LO_C1N2_Stau_100p0_35p0_2L1T.deriv.DAOD_SUSY3.e8263_a875_r9364_p4029   
mc16_13TeV:mc16_13TeV.506442.MGPy8EG_A14N23LO_C1N2_Stau_100p0_65p0_2L1T.deriv.DAOD_SUSY3.e8263_a875_r9364_p4029   
mc16_13TeV:mc16_13TeV.506443.MGPy8EG_A14N23LO_C1N2_Stau_150p0_50p0_2L1T.deriv.DAOD_SUSY3.e8263_a875_r9364_p4029   
mc16_13TeV:mc16_13TeV.506444.MGPy8EG_A14N23LO_C1N2_Stau_175p0_25p0_2L1T.deriv.DAOD_SUSY3.e8263_a875_r9364_p4029   
mc16_13TeV:mc16_13TeV.506445.MGPy8EG_A14N23LO_C1N2_Stau_175p0_75p0_2L1T.deriv.DAOD_SUSY3.e8263_a875_r9364_p4029   
mc16_13TeV:mc16_13TeV.506446.MGPy8EG_A14N23LO_C1N2_Stau_112p0_12p0_2L1T.deriv.DAOD_SUSY3.e8263_a875_r9364_p4029   
mc16_13TeV:mc16_13TeV.506447.MGPy8EG_A14N23LO_C1N2_Stau_112p0_47p0_2L1T.deriv.DAOD_SUSY3.e8263_a875_r9364_p4029   
mc16_13TeV:mc16_13TeV.506448.MGPy8EG_A14N23LO_C1N2_Stau_117p0_82p0_2L1T.deriv.DAOD_SUSY3.e8263_a875_r9364_p4029   
mc16_13TeV:mc16_13TeV.506449.MGPy8EG_A14N23LO_C1N2_Stau_130p0_30p0_2L1T.deriv.DAOD_SUSY3.e8263_a875_r9364_p4029   
mc16_13TeV:mc16_13TeV.506450.MGPy8EG_A14N23LO_C1N2_Stau_132p0_67p0_2L1T.deriv.DAOD_SUSY3.e8263_a875_r9364_p4029   
mc16_13TeV:mc16_13TeV.506451.MGPy8EG_A14N23LO_C1N2_Stau_142p0_107p0_2L1T.deriv.DAOD_SUSY3.e8263_a875_r9364_p4029  
mc16_13TeV:mc16_13TeV.506452.MGPy8EG_A14N23LO_C1N2_Stau_157p0_92p0_2L1T.deriv.DAOD_SUSY3.e8263_a875_r9364_p4029   
mc16_13TeV:mc16_13TeV.506453.MGPy8EG_A14N23LO_C1N2_Stau_167p0_132p0_2L1T.deriv.DAOD_SUSY3.e8263_a875_r9364_p4029  
mc16_13TeV:mc16_13TeV.506454.MGPy8EG_A14N23LO_C1N2_Stau_182p0_117p0_2L1T.deriv.DAOD_SUSY3.e8263_a875_r9364_p4029  
mc16_13TeV:mc16_13TeV.506455.MGPy8EG_A14N23LO_C1N2_Stau_192p0_157p0_2L1T.deriv.DAOD_SUSY3.e8263_a875_r9364_p4029  
mc16_13TeV:mc16_13TeV.506456.MGPy8EG_A14N23LO_C1N2_Stau_200p0_0p0_2L1T.deriv.DAOD_SUSY3.e8263_a875_r9364_p4029    
mc16_13TeV:mc16_13TeV.506457.MGPy8EG_A14N23LO_C1N2_Stau_200p0_50p0_2L1T.deriv.DAOD_SUSY3.e8263_a875_r9364_p4029   
mc16_13TeV:mc16_13TeV.506458.MGPy8EG_A14N23LO_C1N2_Stau_225p0_075p0_2L1T.deriv.DAOD_SUSY3.e8263_a875_r9364_p4029  
mc16_13TeV:mc16_13TeV.506459.MGPy8EG_A14N23LO_C1N2_Stau_225p0_125p0_2L1T.deriv.DAOD_SUSY3.e8263_a875_r9364_p4029  
mc16_13TeV:mc16_13TeV.506460.MGPy8EG_A14N23LO_C1N2_Stau_250p0_100p0_2L1T.deriv.DAOD_SUSY3.e8263_a875_r9364_p4029  
mc16_13TeV:mc16_13TeV.506461.MGPy8EG_A14N23LO_C1N2_Stau_250p0_150p0_2L1T.deriv.DAOD_SUSY3.e8263_a875_r9364_p4029  
mc16_13TeV:mc16_13TeV.506462.MGPy8EG_A14N23LO_C1N2_Stau_275p0_125p0_2L1T.deriv.DAOD_SUSY3.e8263_a875_r9364_p4029  
mc16_13TeV:mc16_13TeV.506463.MGPy8EG_A14N23LO_C1N2_Stau_275p0_175p0_2L1T.deriv.DAOD_SUSY3.e8263_a875_r9364_p4029  
mc16_13TeV:mc16_13TeV.506464.MGPy8EG_A14N23LO_C1N2_Stau_207p0_142p0_2L1T.deriv.DAOD_SUSY3.e8263_a875_r9364_p4029  
mc16_13TeV:mc16_13TeV.506465.MGPy8EG_A14N23LO_C1N2_Stau_217p0_182p0_2L1T.deriv.DAOD_SUSY3.e8263_a875_r9364_p4029  
mc16_13TeV:mc16_13TeV.506466.MGPy8EG_A14N23LO_C1N2_Stau_232p0_167p0_2L1T.deriv.DAOD_SUSY3.e8263_a875_r9364_p4029  
mc16_13TeV:mc16_13TeV.506467.MGPy8EG_A14N23LO_C1N2_Stau_242p0_207p0_2L1T.deriv.DAOD_SUSY3.e8263_a875_r9364_p4029  
mc16_13TeV:mc16_13TeV.506468.MGPy8EG_A14N23LO_C1N2_Stau_257p0_192p0_2L1T.deriv.DAOD_SUSY3.e8263_a875_r9364_p4029  
mc16_13TeV:mc16_13TeV.506469.MGPy8EG_A14N23LO_C1N2_Stau_267p0_232p0_2L1T.deriv.DAOD_SUSY3.e8263_a875_r9364_p4029  
mc16_13TeV:mc16_13TeV.506470.MGPy8EG_A14N23LO_C1N2_Stau_282p0_217p0_2L1T.deriv.DAOD_SUSY3.e8263_a875_r9364_p4029  
mc16_13TeV:mc16_13TeV.506471.MGPy8EG_A14N23LO_C1N2_Stau_300p0_0p0_2L1T.deriv.DAOD_SUSY3.e8263_a875_r9364_p4029    
mc16_13TeV:mc16_13TeV.506472.MGPy8EG_A14N23LO_C1N2_Stau_300p0_100p0_2L1T.deriv.DAOD_SUSY3.e8263_a875_r9364_p4029  
mc16_13TeV:mc16_13TeV.506473.MGPy8EG_A14N23LO_C1N2_Stau_300p0_150p0_2L1T.deriv.DAOD_SUSY3.e8263_a875_r9364_p4029  
mc16_13TeV:mc16_13TeV.506474.MGPy8EG_A14N23LO_C1N2_Stau_300p0_200p0_2L1T.deriv.DAOD_SUSY3.e8263_a875_r9364_p4029  
mc16_13TeV:mc16_13TeV.506475.MGPy8EG_A14N23LO_C1N2_Stau_350p0_150p0_2L1T.deriv.DAOD_SUSY3.e8263_a875_r9364_p4029  
mc16_13TeV:mc16_13TeV.506476.MGPy8EG_A14N23LO_C1N2_Stau_350p0_200p0_2L1T.deriv.DAOD_SUSY3.e8263_a875_r9364_p4029  
mc16_13TeV:mc16_13TeV.506477.MGPy8EG_A14N23LO_C1N2_Stau_375p0_175p0_2L1T.deriv.DAOD_SUSY3.e8263_a875_r9364_p4029  
mc16_13TeV:mc16_13TeV.506478.MGPy8EG_A14N23LO_C1N2_Stau_200p0_100p0_2L1T.deriv.DAOD_SUSY3.e8263_a875_r9364_p4029  
mc16_13TeV:mc16_13TeV.506479.MGPy8EG_A14N23LO_C1N2_Stau_292p0_257p0_2L1T.deriv.DAOD_SUSY3.e8263_a875_r9364_p4029  
mc16_13TeV:mc16_13TeV.506480.MGPy8EG_A14N23LO_C1N2_Stau_325p0_125p0_2L1T.deriv.DAOD_SUSY3.e8263_a875_r9364_p4029  
mc16_13TeV:mc16_13TeV.506481.MGPy8EG_A14N23LO_C1N2_Stau_325p0_175p0_2L1T.deriv.DAOD_SUSY3.e8263_a875_r9364_p4029  
mc16_13TeV:mc16_13TeV.506482.MGPy8EG_A14N23LO_C1N2_Stau_325p0_225p0_2L1T.deriv.DAOD_SUSY3.e8263_a875_r9364_p4029  
mc16_13TeV:mc16_13TeV.506483.MGPy8EG_A14N23LO_C1N2_Stau_307p0_242p0_2L1T.deriv.DAOD_SUSY3.e8263_a875_r9364_p4029  
mc16_13TeV:mc16_13TeV.506484.MGPy8EG_A14N23LO_C1N2_Stau_345p0_280p0_2L1T.deriv.DAOD_SUSY3.e8263_a875_r9364_p4029  
mc16_13TeV:mc16_13TeV.506485.MGPy8EG_A14N23LO_C1N2_Stau_362p0_262p0_2L1T.deriv.DAOD_SUSY3.e8263_a875_r9364_p4029  
mc16_13TeV:mc16_13TeV.506486.MGPy8EG_A14N23LO_C1N2_Stau_387p0_237p0_2L1T.deriv.DAOD_SUSY3.e8263_a875_r9364_p4029  
mc16_13TeV:mc16_13TeV.506487.MGPy8EG_A14N23LO_C1N2_Stau_400p0_0p0_2L1T.deriv.DAOD_SUSY3.e8263_a875_r9364_p4029    
mc16_13TeV:mc16_13TeV.506488.MGPy8EG_A14N23LO_C1N2_Stau_412p0_212p0_2L1T.deriv.DAOD_SUSY3.e8263_a875_r9364_p4029  
mc16_13TeV:mc16_13TeV.506489.MGPy8EG_A14N23LO_C1N2_Stau_400p0_100p0_2L1T.deriv.DAOD_SUSY3.e8263_a875_r9364_p4029  
mc16_13TeV:mc16_13TeV.506491.MGPy8EG_A14N23LO_C1N2_Stau_400p0_300p0_2L1T.deriv.DAOD_SUSY3.e8263_a875_r9364_p4029  
mc16_13TeV:mc16_13TeV.506492.MGPy8EG_A14N23LO_C1N2_Stau_425p0_275p0_2L1T.deriv.DAOD_SUSY3.e8263_a875_r9364_p4029  
mc16_13TeV:mc16_13TeV.506493.MGPy8EG_A14N23LO_C1N2_Stau_450p0_250p0_2L1T.deriv.DAOD_SUSY3.e8263_a875_r9364_p4029  
mc16_13TeV:mc16_13TeV.506494.MGPy8EG_A14N23LO_C1N2_Stau_450p0_300p0_2L1T.deriv.DAOD_SUSY3.e8263_a875_r9364_p4029  
mc16_13TeV:mc16_13TeV.506495.MGPy8EG_A14N23LO_C1N2_Stau_450p0_350p0_2L1T.deriv.DAOD_SUSY3.e8263_a875_r9364_p4029  
mc16_13TeV:mc16_13TeV.506496.MGPy8EG_A14N23LO_C1N2_Stau_500p0_000p0_2L1T.deriv.DAOD_SUSY3.e8263_a875_r9364_p4029  
mc16_13TeV:mc16_13TeV.506497.MGPy8EG_A14N23LO_C1N2_Stau_500p0_100p0_2L1T.deriv.DAOD_SUSY3.e8263_a875_r9364_p4029  
mc16_13TeV:mc16_13TeV.506498.MGPy8EG_A14N23LO_C1N2_Stau_500p0_200p0_2L1T.deriv.DAOD_SUSY3.e8263_a875_r9364_p4029  
mc16_13TeV:mc16_13TeV.506500.MGPy8EG_A14N23LO_C1N2_Stau_500p0_300p0_2L1T.deriv.DAOD_SUSY3.e8263_a875_r9364_p4029  
mc16_13TeV:mc16_13TeV.506501.MGPy8EG_A14N23LO_C1N2_Stau_500p0_350p0_2L1T.deriv.DAOD_SUSY3.e8263_a875_r9364_p4029  
mc16_13TeV:mc16_13TeV.506502.MGPy8EG_A14N23LO_C1N2_Stau_500p0_400p0_2L1T.deriv.DAOD_SUSY3.e8263_a875_r9364_p4029  
mc16_13TeV:mc16_13TeV.506503.MGPy8EG_A14N23LO_C1N2_Stau_550p0_350p0_2L1T.deriv.DAOD_SUSY3.e8263_a875_r9364_p4029  
mc16_13TeV:mc16_13TeV.506504.MGPy8EG_A14N23LO_C1N2_Stau_550p0_400p0_2L1T.deriv.DAOD_SUSY3.e8263_a875_r9364_p4029  
mc16_13TeV:mc16_13TeV.506505.MGPy8EG_A14N23LO_C1N2_Stau_550p0_450p0_2L1T.deriv.DAOD_SUSY3.e8263_a875_r9364_p4029  
mc16_13TeV:mc16_13TeV.506506.MGPy8EG_A14N23LO_C1N2_Stau_600p0_0p0_2L1T.deriv.DAOD_SUSY3.e8263_a875_r9364_p4029    
mc16_13TeV:mc16_13TeV.506507.MGPy8EG_A14N23LO_C1N2_Stau_600p0_100p0_2L1T.deriv.DAOD_SUSY3.e8263_a875_r9364_p4029  
mc16_13TeV:mc16_13TeV.506508.MGPy8EG_A14N23LO_C1N2_Stau_600p0_200p0_2L1T.deriv.DAOD_SUSY3.e8263_a875_r9364_p4029  
mc16_13TeV:mc16_13TeV.506509.MGPy8EG_A14N23LO_C1N2_Stau_600p0_300p0_2L1T.deriv.DAOD_SUSY3.e8263_a875_r9364_p4029  
mc16_13TeV:mc16_13TeV.506510.MGPy8EG_A14N23LO_C1N2_Stau_600p0_400p0_2L1T.deriv.DAOD_SUSY3.e8263_a875_r9364_p4029  
mc16_13TeV:mc16_13TeV.506511.MGPy8EG_A14N23LO_C1N2_Stau_600p0_450p0_2L1T.deriv.DAOD_SUSY3.e8263_a875_r9364_p4029  
mc16_13TeV:mc16_13TeV.506512.MGPy8EG_A14N23LO_C1N2_Stau_600p0_500p0_2L1T.deriv.DAOD_SUSY3.e8263_a875_r9364_p4029  
mc16_13TeV:mc16_13TeV.506513.MGPy8EG_A14N23LO_C1N2_Stau_650p0_350p0_2L1T.deriv.DAOD_SUSY3.e8263_a875_r9364_p4029  
mc16_13TeV:mc16_13TeV.506514.MGPy8EG_A14N23LO_C1N2_Stau_650p0_450p0_2L1T.deriv.DAOD_SUSY3.e8263_a875_r9364_p4029  
mc16_13TeV:mc16_13TeV.506515.MGPy8EG_A14N23LO_C1N2_Stau_650p0_500p0_2L1T.deriv.DAOD_SUSY3.e8263_a875_r9364_p4029  
mc16_13TeV:mc16_13TeV.506516.MGPy8EG_A14N23LO_C1N2_Stau_650p0_550p0_2L1T.deriv.DAOD_SUSY3.e8263_a875_r9364_p4029  
mc16_13TeV:mc16_13TeV.506517.MGPy8EG_A14N23LO_C1N2_Stau_700p0_000p0_2L1T.deriv.DAOD_SUSY3.e8263_a875_r9364_p4029  
mc16_13TeV:mc16_13TeV.506518.MGPy8EG_A14N23LO_C1N2_Stau_700p0_100p0_2L1T.deriv.DAOD_SUSY3.e8263_a875_r9364_p4029  
mc16_13TeV:mc16_13TeV.506519.MGPy8EG_A14N23LO_C1N2_Stau_700p0_200p0_2L1T.deriv.DAOD_SUSY3.e8263_a875_r9364_p4029  
mc16_13TeV:mc16_13TeV.506520.MGPy8EG_A14N23LO_C1N2_Stau_700p0_300p0_2L1T.deriv.DAOD_SUSY3.e8263_a875_r9364_p4029  
mc16_13TeV:mc16_13TeV.506521.MGPy8EG_A14N23LO_C1N2_Stau_700p0_400p0_2L1T.deriv.DAOD_SUSY3.e8263_a875_r9364_p4029  
mc16_13TeV:mc16_13TeV.506522.MGPy8EG_A14N23LO_C1N2_Stau_700p0_500p0_2L1T.deriv.DAOD_SUSY3.e8263_a875_r9364_p4029  
mc16_13TeV:mc16_13TeV.506523.MGPy8EG_A14N23LO_C1N2_Stau_700p0_550p0_2L1T.deriv.DAOD_SUSY3.e8263_a875_r9364_p4029  
mc16_13TeV:mc16_13TeV.506524.MGPy8EG_A14N23LO_C1N2_Stau_700p0_600p0_2L1T.deriv.DAOD_SUSY3.e8263_a875_r9364_p4029  
mc16_13TeV:mc16_13TeV.506525.MGPy8EG_A14N23LO_C1N2_Stau_725p0_575p0_2L1T.deriv.DAOD_SUSY3.e8263_a875_r9364_p4029  
mc16_13TeV:mc16_13TeV.506526.MGPy8EG_A14N23LO_C1N2_Stau_750p0_450p0_2L1T.deriv.DAOD_SUSY3.e8263_a875_r9364_p4029  
mc16_13TeV:mc16_13TeV.506527.MGPy8EG_A14N23LO_C1N2_Stau_750p0_550p0_2L1T.deriv.DAOD_SUSY3.e8263_a875_r9364_p4029  
mc16_13TeV:mc16_13TeV.506528.MGPy8EG_A14N23LO_C1N2_Stau_800p0_0p0_2L1T.deriv.DAOD_SUSY3.e8263_a875_r9364_p4029    
mc16_13TeV:mc16_13TeV.506529.MGPy8EG_A14N23LO_C1N2_Stau_800p0_100p0_2L1T.deriv.DAOD_SUSY3.e8263_a875_r9364_p4029  
mc16_13TeV:mc16_13TeV.506530.MGPy8EG_A14N23LO_C1N2_Stau_800p0_200p0_2L1T.deriv.DAOD_SUSY3.e8263_a875_r9364_p4029  
mc16_13TeV:mc16_13TeV.506531.MGPy8EG_A14N23LO_C1N2_Stau_800p0_300p0_2L1T.deriv.DAOD_SUSY3.e8263_a875_r9364_p4029  
mc16_13TeV:mc16_13TeV.506532.MGPy8EG_A14N23LO_C1N2_Stau_800p0_400p0_2L1T.deriv.DAOD_SUSY3.e8263_a875_r9364_p4029  
mc16_13TeV:mc16_13TeV.506533.MGPy8EG_A14N23LO_C1N2_Stau_800p0_500p0_2L1T.deriv.DAOD_SUSY3.e8263_a875_r9364_p4029  
mc16_13TeV:mc16_13TeV.506534.MGPy8EG_A14N23LO_C1N2_Stau_800p0_550p0_2L1T.deriv.DAOD_SUSY3.e8263_a875_r9364_p4029  
mc16_13TeV:mc16_13TeV.506535.MGPy8EG_A14N23LO_C1N2_Stau_800p0_600p0_2L1T.deriv.DAOD_SUSY3.e8263_a875_r9364_p4029  
mc16_13TeV:mc16_13TeV.506536.MGPy8EG_A14N23LO_C1N2_Stau_800p0_700p0_2L1T.deriv.DAOD_SUSY3.e8263_a875_r9364_p4029  
mc16_13TeV:mc16_13TeV.506537.MGPy8EG_A14N23LO_C1N2_Stau_900p0_0p0_2L1T.deriv.DAOD_SUSY3.e8263_a875_r9364_p4029    
mc16_13TeV:mc16_13TeV.506538.MGPy8EG_A14N23LO_C1N2_Stau_900p0_100p0_2L1T.deriv.DAOD_SUSY3.e8263_a875_r9364_p4029  
mc16_13TeV:mc16_13TeV.506539.MGPy8EG_A14N23LO_C1N2_Stau_900p0_200p0_2L1T.deriv.DAOD_SUSY3.e8263_a875_r9364_p4029  
mc16_13TeV:mc16_13TeV.506540.MGPy8EG_A14N23LO_C1N2_Stau_900p0_300p0_2L1T.deriv.DAOD_SUSY3.e8263_a875_r9364_p4029  
mc16_13TeV:mc16_13TeV.506541.MGPy8EG_A14N23LO_C1N2_Stau_900p0_400p0_2L1T.deriv.DAOD_SUSY3.e8263_a875_r9364_p4029  
mc16_13TeV:mc16_13TeV.506542.MGPy8EG_A14N23LO_C1N2_Stau_900p0_500p0_2L1T.deriv.DAOD_SUSY3.e8263_a875_r9364_p4029  
mc16_13TeV:mc16_13TeV.506543.MGPy8EG_A14N23LO_C1N2_Stau_900p0_600p0_2L1T.deriv.DAOD_SUSY3.e8263_a875_r9364_p4029  
mc16_13TeV:mc16_13TeV.506544.MGPy8EG_A14N23LO_C1N2_Stau_900p0_700p0_2L1T.deriv.DAOD_SUSY3.e8263_a875_r9364_p4029  
mc16_13TeV:mc16_13TeV.506545.MGPy8EG_A14N23LO_C1N2_Stau_900p0_800p0_2L1T.deriv.DAOD_SUSY3.e8263_a875_r9364_p4029  
mc16_13TeV:mc16_13TeV.506546.MGPy8EG_A14N23LO_C1N2_Stau_1000p0_0p0_2L1T.deriv.DAOD_SUSY3.e8263_a875_r9364_p4029   
mc16_13TeV:mc16_13TeV.506547.MGPy8EG_A14N23LO_C1N2_Stau_1000p0_100p0_2L1T.deriv.DAOD_SUSY3.e8263_a875_r9364_p4029 
mc16_13TeV:mc16_13TeV.506548.MGPy8EG_A14N23LO_C1N2_Stau_1000p0_200p0_2L1T.deriv.DAOD_SUSY3.e8263_a875_r9364_p4029 
mc16_13TeV:mc16_13TeV.506549.MGPy8EG_A14N23LO_C1N2_Stau_1000p0_300p0_2L1T.deriv.DAOD_SUSY3.e8263_a875_r9364_p4029 
mc16_13TeV:mc16_13TeV.506550.MGPy8EG_A14N23LO_C1N2_Stau_1000p0_400p0_2L1T.deriv.DAOD_SUSY3.e8263_a875_r9364_p4029 
mc16_13TeV:mc16_13TeV.506551.MGPy8EG_A14N23LO_C1N2_Stau_1000p0_500p0_2L1T.deriv.DAOD_SUSY3.e8263_a875_r9364_p4029 
mc16_13TeV:mc16_13TeV.506552.MGPy8EG_A14N23LO_C1N2_Stau_1000p0_600p0_2L1T.deriv.DAOD_SUSY3.e8263_a875_r9364_p4029 
mc16_13TeV:mc16_13TeV.506553.MGPy8EG_A14N23LO_C1N2_Stau_1000p0_700p0_2L1T.deriv.DAOD_SUSY3.e8263_a875_r9364_p4029 
mc16_13TeV:mc16_13TeV.506554.MGPy8EG_A14N23LO_C1N2_Stau_1000p0_800p0_2L1T.deriv.DAOD_SUSY3.e8263_a875_r9364_p4029 
mc16_13TeV:mc16_13TeV.506555.MGPy8EG_A14N23LO_C1N2_Stau_1100p0_0p0_2L1T.deriv.DAOD_SUSY3.e8263_a875_r9364_p4029   
mc16_13TeV:mc16_13TeV.506556.MGPy8EG_A14N23LO_C1N2_Stau_1100p0_100p0_2L1T.deriv.DAOD_SUSY3.e8263_a875_r9364_p4029 
mc16_13TeV:mc16_13TeV.506557.MGPy8EG_A14N23LO_C1N2_Stau_1100p0_200p0_2L1T.deriv.DAOD_SUSY3.e8263_a875_r9364_p4029 
mc16_13TeV:mc16_13TeV.506558.MGPy8EG_A14N23LO_C1N2_Stau_1100p0_300p0_2L1T.deriv.DAOD_SUSY3.e8263_a875_r9364_p4029 
mc16_13TeV:mc16_13TeV.506559.MGPy8EG_A14N23LO_C1N2_Stau_1100p0_400p0_2L1T.deriv.DAOD_SUSY3.e8263_a875_r9364_p4029 
mc16_13TeV:mc16_13TeV.506560.MGPy8EG_A14N23LO_C1N2_Stau_1100p0_500p0_2L1T.deriv.DAOD_SUSY3.e8263_a875_r9364_p4029 
mc16_13TeV:mc16_13TeV.506561.MGPy8EG_A14N23LO_C1N2_Stau_1100p0_600p0_2L1T.deriv.DAOD_SUSY3.e8263_a875_r9364_p4029 
mc16_13TeV:mc16_13TeV.506562.MGPy8EG_A14N23LO_C1N2_Stau_1100p0_700p0_2L1T.deriv.DAOD_SUSY3.e8263_a875_r9364_p4029 
mc16_13TeV:mc16_13TeV.506563.MGPy8EG_A14N23LO_C1N2_Stau_1100p0_800p0_2L1T.deriv.DAOD_SUSY3.e8263_a875_r9364_p4029 
mc16_13TeV:mc16_13TeV.506564.MGPy8EG_A14N23LO_C1N2_Stau_1200p0_0p0_2L1T.deriv.DAOD_SUSY3.e8263_a875_r9364_p4029   
mc16_13TeV:mc16_13TeV.506565.MGPy8EG_A14N23LO_C1N2_Stau_1200p0_100p0_2L1T.deriv.DAOD_SUSY3.e8263_a875_r9364_p4029 
mc16_13TeV:mc16_13TeV.506566.MGPy8EG_A14N23LO_C1N2_Stau_1200p0_200p0_2L1T.deriv.DAOD_SUSY3.e8263_a875_r9364_p4029 
mc16_13TeV:mc16_13TeV.506567.MGPy8EG_A14N23LO_C1N2_Stau_1200p0_300p0_2L1T.deriv.DAOD_SUSY3.e8263_a875_r9364_p4029 
mc16_13TeV:mc16_13TeV.506568.MGPy8EG_A14N23LO_C1N2_Stau_1200p0_400p0_2L1T.deriv.DAOD_SUSY3.e8263_a875_r9364_p4029 
mc16_13TeV:mc16_13TeV.506569.MGPy8EG_A14N23LO_C1N2_Stau_1200p0_500p0_2L1T.deriv.DAOD_SUSY3.e8263_a875_r9364_p4029 
mc16_13TeV:mc16_13TeV.506570.MGPy8EG_A14N23LO_C1N2_Stau_1200p0_600p0_2L1T.deriv.DAOD_SUSY3.e8263_a875_r9364_p4029 
mc16_13TeV:mc16_13TeV.506571.MGPy8EG_A14N23LO_C1N2_Stau_1200p0_700p0_2L1T.deriv.DAOD_SUSY3.e8263_a875_r9364_p4029 
mc16_13TeV:mc16_13TeV.506572.MGPy8EG_A14N23LO_C1N2_Stau_1200p0_800p0_2L1T.deriv.DAOD_SUSY3.e8263_a875_r9364_p4029 
mc16_13TeV:mc16_13TeV.506573.MGPy8EG_A14N23LO_C1N2_Stau_1300p0_0p0_2L1T.deriv.DAOD_SUSY3.e8263_a875_r9364_p4029   
mc16_13TeV:mc16_13TeV.506574.MGPy8EG_A14N23LO_C1N2_Stau_1300p0_100p0_2L1T.deriv.DAOD_SUSY3.e8263_a875_r9364_p4029 
mc16_13TeV:mc16_13TeV.506575.MGPy8EG_A14N23LO_C1N2_Stau_1300p0_200p0_2L1T.deriv.DAOD_SUSY3.e8263_a875_r9364_p4029 
mc16_13TeV:mc16_13TeV.506576.MGPy8EG_A14N23LO_C1N2_Stau_1300p0_300p0_2L1T.deriv.DAOD_SUSY3.e8263_a875_r9364_p4029 
mc16_13TeV:mc16_13TeV.506577.MGPy8EG_A14N23LO_C1N2_Stau_1300p0_400p0_2L1T.deriv.DAOD_SUSY3.e8263_a875_r9364_p4029 
mc16_13TeV:mc16_13TeV.506578.MGPy8EG_A14N23LO_C1N2_Stau_1300p0_500p0_2L1T.deriv.DAOD_SUSY3.e8263_a875_r9364_p4029 
mc16_13TeV:mc16_13TeV.506579.MGPy8EG_A14N23LO_C1N2_Stau_1300p0_600p0_2L1T.deriv.DAOD_SUSY3.e8263_a875_r9364_p4029 
mc16_13TeV:mc16_13TeV.506580.MGPy8EG_A14N23LO_C1N2_Stau_1300p0_700p0_2L1T.deriv.DAOD_SUSY3.e8263_a875_r9364_p4029 
mc16_13TeV:mc16_13TeV.506581.MGPy8EG_A14N23LO_C1N2_Stau_1300p0_800p0_2L1T.deriv.DAOD_SUSY3.e8263_a875_r9364_p4029 
mc16_13TeV:mc16_13TeV.506582.MGPy8EG_A14N23LO_C1N2_Stau_1400p0_0p0_2L1T.deriv.DAOD_SUSY3.e8263_a875_r9364_p4029   
mc16_13TeV:mc16_13TeV.506583.MGPy8EG_A14N23LO_C1N2_Stau_1400p0_100p0_2L1T.deriv.DAOD_SUSY3.e8263_a875_r9364_p4029 
mc16_13TeV:mc16_13TeV.506584.MGPy8EG_A14N23LO_C1N2_Stau_1400p0_200p0_2L1T.deriv.DAOD_SUSY3.e8263_a875_r9364_p4029 
mc16_13TeV:mc16_13TeV.506585.MGPy8EG_A14N23LO_C1N2_Stau_1400p0_300p0_2L1T.deriv.DAOD_SUSY3.e8263_a875_r9364_p4029 
mc16_13TeV:mc16_13TeV.506586.MGPy8EG_A14N23LO_C1N2_Stau_1400p0_400p0_2L1T.deriv.DAOD_SUSY3.e8263_a875_r9364_p4029 
mc16_13TeV:mc16_13TeV.506587.MGPy8EG_A14N23LO_C1N2_Stau_1400p0_500p0_2L1T.deriv.DAOD_SUSY3.e8263_a875_r9364_p4029 
mc16_13TeV:mc16_13TeV.506588.MGPy8EG_A14N23LO_C1N2_Stau_1400p0_600p0_2L1T.deriv.DAOD_SUSY3.e8263_a875_r9364_p4029 
mc16_13TeV:mc16_13TeV.506589.MGPy8EG_A14N23LO_C1N2_Stau_1400p0_700p0_2L1T.deriv.DAOD_SUSY3.e8263_a875_r9364_p4029 
mc16_13TeV:mc16_13TeV.506590.MGPy8EG_A14N23LO_C1N2_Stau_1400p0_800p0_2L1T.deriv.DAOD_SUSY3.e8263_a875_r9364_p4029 
mc16_13TeV:mc16_13TeV.506591.MGPy8EG_A14N23LO_C1N2_Stau_1500p0_0p0_2L1T.deriv.DAOD_SUSY3.e8263_a875_r9364_p4029   
mc16_13TeV:mc16_13TeV.506592.MGPy8EG_A14N23LO_C1N2_Stau_1500p0_100p0_2L1T.deriv.DAOD_SUSY3.e8263_a875_r9364_p4029 
mc16_13TeV:mc16_13TeV.506593.MGPy8EG_A14N23LO_C1N2_Stau_1500p0_200p0_2L1T.deriv.DAOD_SUSY3.e8263_a875_r9364_p4029 
mc16_13TeV:mc16_13TeV.506594.MGPy8EG_A14N23LO_C1N2_Stau_1500p0_300p0_2L1T.deriv.DAOD_SUSY3.e8263_a875_r9364_p4029 
mc16_13TeV:mc16_13TeV.506595.MGPy8EG_A14N23LO_C1N2_Stau_1500p0_400p0_2L1T.deriv.DAOD_SUSY3.e8263_a875_r9364_p4029 
mc16_13TeV:mc16_13TeV.506596.MGPy8EG_A14N23LO_C1N2_Stau_1500p0_500p0_2L1T.deriv.DAOD_SUSY3.e8263_a875_r9364_p4029 
mc16_13TeV:mc16_13TeV.506597.MGPy8EG_A14N23LO_C1N2_Stau_1500p0_600p0_2L1T.deriv.DAOD_SUSY3.e8263_a875_r9364_p4029 
mc16_13TeV:mc16_13TeV.506598.MGPy8EG_A14N23LO_C1N2_Stau_1500p0_700p0_2L1T.deriv.DAOD_SUSY3.e8263_a875_r9364_p4029 
mc16_13TeV:mc16_13TeV.506599.MGPy8EG_A14N23LO_C1N2_Stau_1500p0_800p0_2L1T.deriv.DAOD_SUSY3.e8263_a875_r9364_p4029 
